{
	"type": "FeatureCollection",
	"features": [{
					"type": "Feature",
					"properties": {"OBJECTID": "2732","UNINAME": "Akter Char","Union_Code_st": "15","un_uid": "30298415","Div_Code": "30","Dis_Code": "29","Upa_Code": "84","Union_Code": "15","ruo": ""},
					"geometry": 
						{"type":"MultiPolygon","coordinates":[[[[90.0730056511786,23.5507136253773],[90.0679901953705,23.5428996274218],[90.0938124023572,23.5262735713986],[90.0929261499471,23.5175629871843],[90.0810859231679,23.5200417998236],[90.0643153632825,23.5010291008149],[90.0348574499021,23.5073694387519],[90.035534735128,23.5150015493212],[90.0402090181242,23.5280958888858],[89.9995687018531,23.5303395501095],[90.0006268090816,23.5454448213111],[90.0070738100246,23.5527449304094],[90.0730056511786,23.5507136253773]]]]}
				},{
					"type": "Feature",
					"properties": {"OBJECTID": "2733","UNINAME": "Bhashanchar","Union_Code_st": "19","un_uid": "30298419","Div_Code": "30","Dis_Code": "29","Upa_Code": "84","Union_Code": "19","ruo": ""},
					"geometry": 
						{"type":"MultiPolygon","coordinates":[[[[90.035534735128,23.5150015493212],[90.0348574499021,23.5073694387519],[90.0643153632825,23.5010291008149],[90.0443591971367,23.481016208616],[90.0368505301861,23.4769674417591],[90.0152865945876,23.4836610900565],[90.0063819918426,23.4676530187447],[89.9858017556711,23.4754174782606],[89.9713695232165,23.4873689353371],[89.9569489485281,23.4874565135957],[89.9563516607226,23.5094176997011],[89.9384793896205,23.526398076779],[89.9453627418496,23.5333170306903],[89.9588856459257,23.5208585921766],[89.9886084056568,23.5055945623786],[89.9952722321417,23.4970672421961],[90.0267835778168,23.4947700779783],[90.035534735128,23.5150015493212]]]]}
				},{
					"type": "Feature",
					"properties": {"OBJECTID": "2734","UNINAME": "Char Bishnupur","Union_Code_st": "28","un_uid": "30298428","Div_Code": "30","Dis_Code": "29","Upa_Code": "84","Union_Code": "28","ruo": ""},
					"geometry": 
						{"type":"MultiPolygon","coordinates":[[[[90.0006268090816,23.5454448213111],[89.9995687018531,23.5303395501095],[90.0402090181242,23.5280958888858],[90.035534735128,23.5150015493212],[90.0267835778168,23.4947700779783],[89.9952722321417,23.4970672421961],[89.9886084056568,23.5055945623786],[89.9588856459257,23.5208585921766],[89.9453627418496,23.5333170306903],[89.9630998578861,23.5467445702566],[89.9856677181715,23.5518021879858],[90.0006268090816,23.5454448213111]]]]}
				},{
					"type": "Feature",
					"properties": {"OBJECTID": "2735","UNINAME": "Char Manair","Union_Code_st": "38","un_uid": "30298438","Div_Code": "30","Dis_Code": "29","Upa_Code": "84","Union_Code": "38","ruo": ""},
					"geometry": 
						{"type":"MultiPolygon","coordinates":[[[[90.1109378851098,23.4329546662286],[90.1025678178396,23.4201210767785],[90.0928238668114,23.375180370936],[90.0925133400964,23.3740785186228],[90.0551415566013,23.3865719707149],[90.0706107505032,23.3951138569301],[90.0803951563954,23.4005199341064],[90.0805022779586,23.4173337656321],[90.0899672498421,23.4313698775341],[90.1067813363052,23.4443532672616],[90.1109378851098,23.4329546662286]]]]}
				},{
					"type": "Feature",
					"properties": {"OBJECTID": "2736","UNINAME": "Char Nasirpur","Union_Code_st": "47","un_uid": "30298447","Div_Code": "30","Dis_Code": "29","Upa_Code": "84","Union_Code": "47","ruo": ""},
					"geometry": 
						{"type":"MultiPolygon","coordinates":[[[[90.0929261499471,23.5175629871843],[90.100818024567,23.509429577259],[90.1368685263376,23.4926064701718],[90.141443146287,23.4753793790528],[90.1398769138544,23.4727313122586],[90.1273074136131,23.4601839929252],[90.1106945814744,23.4563412746581],[90.1067813363052,23.4443532672616],[90.0899672498421,23.4313698775341],[90.0805022779586,23.4173337656321],[90.076594357484,23.4322944257483],[90.0936119938762,23.46098468731],[90.0859661006809,23.4756913866007],[90.0958642339842,23.4887873576904],[90.0907643838036,23.512674064321],[90.0810859231679,23.5200417998236],[90.0929261499471,23.5175629871843]]]]}
				},{
					"type": "Feature",
					"properties": {"OBJECTID": "2737","UNINAME": "Dheukhali","Union_Code_st": "57","un_uid": "30298457","Div_Code": "30","Dis_Code": "29","Upa_Code": "84","Union_Code": "57","ruo": ""},
					"geometry": 
						{"type":"MultiPolygon","coordinates":[[[[90.076594357484,23.4322944257483],[90.0601041435892,23.4410947211804],[90.0443591971367,23.481016208616],[90.0643153632825,23.5010291008149],[90.0810859231679,23.5200417998236],[90.0907643838036,23.512674064321],[90.0958642339842,23.4887873576904],[90.0859661006809,23.4756913866007],[90.0936119938762,23.46098468731],[90.076594357484,23.4322944257483]]]]}
				},{
					"type": "Feature",
					"properties": {"OBJECTID": "2738","UNINAME": "Krishnapur","Union_Code_st": "66","un_uid": "30298466","Div_Code": "30","Dis_Code": "29","Upa_Code": "84","Union_Code": "66","ruo": ""},
					"geometry": 
						{"type":"MultiPolygon","coordinates":[[[[89.9307605729539,23.536192150692],[89.9384793896205,23.526398076779],[89.9563516607226,23.5094176997011],[89.9569489485281,23.4874565135957],[89.9713695232165,23.4873689353371],[89.9858017556711,23.4754174782606],[89.964298547655,23.4604667090995],[89.9342317395877,23.4598172824628],[89.9175593620165,23.4938834096099],[89.9208065133649,23.5018120660612],[89.9264821637287,23.5061574322505],[89.9307605729539,23.536192150692]]]]}
				},{
					"type": "Feature",
					"properties": {"OBJECTID": "2739","UNINAME": "Narikelbaria","Union_Code_st": "76","un_uid": "30298476","Div_Code": "30","Dis_Code": "29","Upa_Code": "84","Union_Code": "76","ruo": ""},
					"geometry": 
						{"type":"MultiPolygon","coordinates":[[[[90.1299330544421,23.5650297106611],[90.1431006755648,23.5460581692878],[90.1582589162994,23.5221458649623],[90.1785381687744,23.5005877949711],[90.1820052459955,23.4980359363901],[90.1531581274651,23.4656042483209],[90.141443146287,23.4753793790528],[90.1368685263376,23.4926064701718],[90.100818024567,23.509429577259],[90.0929261499471,23.5175629871843],[90.0938124023572,23.5262735713986],[90.0679901953705,23.5428996274218],[90.0730056511786,23.5507136253773],[90.07817131259,23.5614224124315],[90.0851613039803,23.5628335142328],[90.0854798748829,23.5629919791504],[90.0863044868214,23.5634019545015],[90.0891241490507,23.5651883065047],[90.089574847438,23.5655442810474],[90.0915106371197,23.5661827932938],[90.092962774101,23.5666279293282],[90.0935082852446,23.5667952746693],[90.094020703737,23.5669327167544],[90.0977200087653,23.5678393670566],[90.1016660138487,23.5685193819618],[90.1018895932044,23.5685576252317],[90.1032626276612,23.5684127581103],[90.1038300174618,23.568337859122],[90.1046962576255,23.5682232383388],[90.1051273866302,23.5681659274845],[90.1052140412,23.5681545777908],[90.1068595891283,23.5676007574509],[90.1073022413661,23.5674073752304],[90.1089926344366,23.566668892317],[90.1091711010703,23.5665908586975],[90.1100490647305,23.5662323127016],[90.110508583209,23.5660784281626],[90.1116538869784,23.565733796693],[90.1138075569268,23.5653568069358],[90.1208553987192,23.5650963100003],[90.1219506596328,23.5649831086141],[90.1237235269509,23.5647999216927],[90.1299330544421,23.5650297106611]]],[[[90.1398769138544,23.4727313122586],[90.135196457005,23.4652019469122],[90.1273074136131,23.4601839929252],[90.1398769138544,23.4727313122586]]]]}
				},{
					"type": "Feature",
					"properties": {"OBJECTID": "2740","UNINAME": "Sadarpur","Union_Code_st": "85","un_uid": "30298485","Div_Code": "30","Dis_Code": "29","Upa_Code": "84","Union_Code": "85","ruo": ""},
					"geometry": 
						{"type":"MultiPolygon","coordinates":[[[[90.0443591971367,23.481016208616],[90.0601041435892,23.4410947211804],[90.0435189008006,23.443871666789],[90.0240001715077,23.4418948357289],[90.0050403111715,23.4549171139771],[90.0063819918426,23.4676530187447],[90.0152865945876,23.4836610900565],[90.0368505301861,23.4769674417591],[90.0443591971367,23.481016208616]]]]}
				}]}