{
	"type": "FeatureCollection",
	"features": [{
					"type": "Feature",
					"properties": {"OBJECTID": "2455","UNINAME": "Atghar","Union_Code_st": "10","un_uid": "30299010","Div_Code": "30","Dis_Code": "29","Upa_Code": "90","Union_Code": "10","ruo": ""},
					"geometry": 
						{"type":"MultiPolygon","coordinates":[[[[89.7928852626021,23.4915974249145],[89.7927025068134,23.4757647222438],[89.7692854963631,23.4674802510758],[89.7696467053716,23.4566469016921],[89.7830212627824,23.4477347375216],[89.7657158210718,23.4511264336119],[89.7378949299664,23.4424269320271],[89.7309258880124,23.4774791952511],[89.7209108195039,23.4746913124036],[89.7309532021517,23.4794021217142],[89.755357700423,23.5049760741262],[89.785798841294,23.4872746289382],[89.7928852626021,23.4915974249145]]]]}
				},{
					"type": "Feature",
					"properties": {"OBJECTID": "2456","UNINAME": "Ballabhdi","Union_Code_st": "11","un_uid": "30299011","Div_Code": "30","Dis_Code": "29","Upa_Code": "90","Union_Code": "11","ruo": ""},
					"geometry": 
						{"type":"MultiPolygon","coordinates":[[[[89.8415367428597,23.3730884378362],[89.8406503266269,23.3592313606424],[89.8594875240127,23.3616036536361],[89.8771292302732,23.3457501603599],[89.8836957187451,23.3356346949389],[89.8814151352322,23.3340149265762],[89.8719432150537,23.3216196604351],[89.8591230431701,23.3401881023723],[89.8439823805987,23.3322923603497],[89.8216890721689,23.3424370257878],[89.804628042548,23.356787744573],[89.8076314100688,23.3688410160153],[89.8277579070565,23.3804375139125],[89.8415367428597,23.3730884378362]]]]}
				},{
					"type": "Feature",
					"properties": {"OBJECTID": "2457","UNINAME": "Bhawal","Union_Code_st": "16","un_uid": "30299016","Div_Code": "30","Dis_Code": "29","Upa_Code": "90","Union_Code": "16","ruo": ""},
					"geometry": 
						{"type":"MultiPolygon","coordinates":[[[[89.8448092675621,23.4402071481377],[89.8461999376852,23.4310513215323],[89.8297860519295,23.4236690071342],[89.8113187233879,23.4036001463547],[89.801225237623,23.4233185516752],[89.78230464955,23.4225599611445],[89.7875280100392,23.4444399532634],[89.7971353867609,23.4531943896981],[89.8147132469593,23.4563732738853],[89.8448092675621,23.4402071481377]]]]}
				},{
					"type": "Feature",
					"properties": {"OBJECTID": "2461","UNINAME": "Gatti","Union_Code_st": "39","un_uid": "30299039","Div_Code": "30","Dis_Code": "29","Upa_Code": "90","Union_Code": "39","ruo": ""},
					"geometry": 
						{"type":"MultiPolygon","coordinates":[[[[89.8132524404241,23.5077350575916],[89.8245156436088,23.4978254971626],[89.8382160864378,23.5024222743728],[89.8430492550561,23.4888315316148],[89.8286112575053,23.4728748761593],[89.8487657895839,23.4612968349748],[89.8491542904241,23.4506095062598],[89.8448092675621,23.4402071481377],[89.8147132469593,23.4563732738853],[89.7971353867609,23.4531943896981],[89.7875280100392,23.4444399532634],[89.7830212627824,23.4477347375216],[89.7696467053716,23.4566469016921],[89.7692854963631,23.4674802510758],[89.7927025068134,23.4757647222438],[89.7928852626021,23.4915974249145],[89.8132524404241,23.5077350575916]]]]}
				},{
					"type": "Feature",
					"properties": {"OBJECTID": "2462","UNINAME": "Jadunandi","Union_Code_st": "44","un_uid": "30299044","Div_Code": "30","Dis_Code": "29","Upa_Code": "90","Union_Code": "44","ruo": ""},
					"geometry": 
						{"type":"MultiPolygon","coordinates":[[[[89.8076314100688,23.3688410160153],[89.804628042548,23.356787744573],[89.8216890721689,23.3424370257878],[89.7931661366071,23.3115002597533],[89.789995483655,23.3130215129622],[89.7906490217562,23.3348300061267],[89.7618708418631,23.3870321355467],[89.7713926890269,23.3948350699062],[89.7995619913654,23.3801018807675],[89.8076314100688,23.3688410160153]]]]}
				},{
					"type": "Feature",
					"properties": {"OBJECTID": "2465","UNINAME": "Majhardia","Union_Code_st": "61","un_uid": "30299061","Div_Code": "30","Dis_Code": "29","Upa_Code": "90","Union_Code": "61","ruo": ""},
					"geometry": 
						{"type":"MultiPolygon","coordinates":[[[[89.8461999376852,23.4310513215323],[89.8589767478558,23.4201153695418],[89.8617968747375,23.4040859541996],[89.8415367428597,23.3730884378362],[89.8277579070565,23.3804375139125],[89.812637204857,23.3910226699629],[89.8113187233879,23.4036001463547],[89.8297860519295,23.4236690071342],[89.8461999376852,23.4310513215323]]]]}
				},{
					"type": "Feature",
					"properties": {"OBJECTID": "2468","UNINAME": "Ramkantapur","Union_Code_st": "78","un_uid": "30299078","Div_Code": "30","Dis_Code": "29","Upa_Code": "90","Union_Code": "78","ruo": ""},
					"geometry": 
						{"type":"MultiPolygon","coordinates":[[[[89.7830212627824,23.4477347375216],[89.7875280100392,23.4444399532634],[89.78230464955,23.4225599611445],[89.762717826515,23.4241613234246],[89.7506686918959,23.4121512689198],[89.7382577326729,23.4112079136283],[89.7262319783073,23.4259037089832],[89.7378949299664,23.4424269320271],[89.7657158210718,23.4511264336119],[89.7830212627824,23.4477347375216]]]]}
				},{
					"type": "Feature",
					"properties": {"OBJECTID": "2470","UNINAME": "Sonapur","Union_Code_st": "89","un_uid": "30299089","Div_Code": "30","Dis_Code": "29","Upa_Code": "90","Union_Code": "89","ruo": ""},
					"geometry": 
						{"type":"MultiPolygon","coordinates":[[[[89.78230464955,23.4225599611445],[89.801225237623,23.4233185516752],[89.8113187233879,23.4036001463547],[89.812637204857,23.3910226699629],[89.8277579070565,23.3804375139125],[89.8076314100688,23.3688410160153],[89.7995619913654,23.3801018807675],[89.7713926890269,23.3948350699062],[89.7618708418631,23.3870321355467],[89.7416770416954,23.4085217734009],[89.7382577326729,23.4112079136283],[89.7506686918959,23.4121512689198],[89.762717826515,23.4241613234246],[89.78230464955,23.4225599611445]]]]}
				}]}