{
	"type": "FeatureCollection",
	"features": [{
					"type": "Feature",
					"properties": {"OBJECTID": "4046","UNINAME": "Aorail","Union_Code_st": "13","un_uid": "20129413","Div_Code": "20","Dis_Code": "12","Upa_Code": "94","Union_Code": "13","ruo": ""},
					"geometry": 
						{"type":"MultiPolygon","coordinates":[[[[91.0602890265455,24.1671903682503],[91.0474430065901,24.1651980104831],[91.0456142527881,24.1499653812047],[91.0257873850353,24.139209417019],[91.0240930324914,24.1227845011311],[91.0108235223206,24.1281798966565],[91.0106017773392,24.1282942551135],[91.0103105672603,24.1284130240238],[91.0098988339507,24.1286133064477],[91.0097792752681,24.128660946775],[91.0091448639001,24.1290139732635],[91.0090592717862,24.1290794511149],[91.0085115731209,24.1295103612121],[91.0083245210599,24.1296572256863],[91.0082177654456,24.1297691280894],[91.0077042984359,24.130173844481],[91.0075930731323,24.1302648911466],[91.0072050664021,24.1305903188615],[91.0067692576689,24.1310165337051],[91.0062544968812,24.1314929396634],[91.0057674216184,24.131970854964],[91.0053783383211,24.1323171701332],[91.0052211987033,24.1324361757224],[91.0046549603841,24.1330167750403],[91.0042642197791,24.1333879343942],[91.0040102351945,24.1336289334766],[91.0032634505073,24.1341683808507],[91.0027424486014,24.1343998431114],[91.0011297452792,24.1352695263622],[91.0007838066134,24.1355511994967],[91.0006957544513,24.1356178178659],[91.0004994588239,24.1357647336916],[91.0003907759272,24.1358676121979],[91.0002013196984,24.1360240785732],[90.9996249657863,24.1364952219899],[90.9994953216863,24.1365920281219],[90.9987628877739,24.137162405293],[90.9985365596298,24.1373236265305],[90.9983211747536,24.1374684066889],[90.998023775402,24.1376656525879],[90.997628179191,24.1379702216523],[90.9971622874157,24.1383316944058],[90.9968917124856,24.1385778705558],[90.9964320387765,24.1390279200136],[90.9962813874614,24.1391925952447],[90.9956042651114,24.1399195153741],[90.9949922405977,24.1406341547794],[90.9948544801805,24.1407959223658],[90.9939973397704,24.1417108434446],[90.9932558959711,24.1426346028626],[90.9928489035117,24.1432987921816],[90.9903014947274,24.1466219202348],[90.9902137383115,24.1467286072076],[90.989315722503,24.1476968271826],[90.9890672827855,24.147946233313],[90.9884312068478,24.1485825441878],[90.98819538149,24.14879291984],[90.9878073574113,24.1492097420989],[90.9877521286335,24.1493071858902],[90.9876589103846,24.1494240670068],[90.9875371590992,24.1495902403255],[90.9872823934376,24.1499779761779],[90.9871691009934,24.1501243385551],[90.9869223075481,24.150429047324],[90.9869095201641,24.1504460636822],[90.986804669474,24.1505703574481],[90.9866443759833,24.1507644376247],[90.986478160496,24.1509884720584],[90.986193772124,24.151284391436],[90.9860309687036,24.1514722782082],[90.9858671599105,24.1516093703216],[90.9856088120789,24.15185206161],[90.985148490153,24.1527101840435],[90.985184049075,24.1529351721842],[90.9854720949422,24.1536766999238],[90.9855722870333,24.1539069150451],[90.9857648143037,24.154305305724],[90.9859877011365,24.1548920279643],[90.986162071586,24.1552487656679],[90.9862157405399,24.1553483273484],[90.986302861395,24.1555583059746],[90.9865328435851,24.1559468576238],[90.9863866364229,24.156454119043],[90.9861299478531,24.1565935052931],[90.9858776470483,24.1567435874177],[90.9858993417974,24.1567648965273],[90.9859613373562,24.1568271504306],[90.9862148435269,24.1570744367005],[90.9866776990646,24.1577465322798],[90.9891281065217,24.1617586130247],[90.9918896517426,24.1646939054905],[91.0087398394224,24.1737901751438],[91.0219504413821,24.1868262247739],[91.0544783455112,24.175809664656],[91.0602890265455,24.1671903682503]]]]}
				},{
					"type": "Feature",
					"properties": {"OBJECTID": "4047","UNINAME": "Chunta","Union_Code_st": "19","un_uid": "20129419","Div_Code": "20","Dis_Code": "12","Upa_Code": "94","Union_Code": "19","ruo": ""},
					"geometry": 
						{"type":"MultiPolygon","coordinates":[[[[91.1040059375453,24.1467635310839],[91.1075803982004,24.1234188434094],[91.0926539153358,24.1118592790682],[91.0949167719172,24.0949909858996],[91.0703664510858,24.0909416459065],[91.0537535668785,24.086107371672],[91.0444313590744,24.1096745640154],[91.054868917878,24.1322683330853],[91.0772650110542,24.1370751382554],[91.0810769341393,24.1490347403049],[91.1040059375453,24.1467635310839]]]]}
				},{
					"type": "Feature",
					"properties": {"OBJECTID": "4048","UNINAME": "Kalikachchha","Union_Code_st": "28","un_uid": "20129428","Div_Code": "20","Dis_Code": "12","Upa_Code": "94","Union_Code": "28","ruo": ""},
					"geometry": 
						{"type":"MultiPolygon","coordinates":[[[[91.1100273170578,24.144915902674],[91.1415141772706,24.1312461004667],[91.1333520540663,24.1223119985997],[91.1309403711967,24.0787245214964],[91.1070396162736,24.0783298628595],[91.0964288875406,24.0835201882729],[91.0703664510858,24.0909416459065],[91.0949167719172,24.0949909858996],[91.0926539153358,24.1118592790682],[91.1075803982004,24.1234188434094],[91.1040059375453,24.1467635310839],[91.1100273170578,24.144915902674]]]]}
				},{
					"type": "Feature",
					"properties": {"OBJECTID": "4049","UNINAME": "Noagaon","Union_Code_st": "38","un_uid": "20129438","Div_Code": "20","Dis_Code": "12","Upa_Code": "94","Union_Code": "38","ruo": ""},
					"geometry": 
						{"type":"MultiPolygon","coordinates":[[[[91.1561535115555,24.1205381016026],[91.1672413505682,24.0926332798375],[91.1749597033318,24.0918460308185],[91.1710741320995,24.0690646687707],[91.1552602673621,24.0641416255641],[91.1548321913317,24.050789612071],[91.1441682312794,24.0517829607501],[91.1358530992002,24.0516343508219],[91.1328087830789,24.0513622704691],[91.1309403711967,24.0787245214964],[91.1333520540663,24.1223119985997],[91.1415141772706,24.1312461004667],[91.1561535115555,24.1205381016026]]]]}
				},{
					"type": "Feature",
					"properties": {"OBJECTID": "4050","UNINAME": "Pak Shimul","Union_Code_st": "47","un_uid": "20129447","Div_Code": "20","Dis_Code": "12","Upa_Code": "94","Union_Code": "47","ruo": ""},
					"geometry": 
						{"type":"MultiPolygon","coordinates":[[[[91.0835588133666,24.1790522739637],[91.0942473983563,24.1693223064504],[91.1210034297053,24.1700327858983],[91.1100273170578,24.144915902674],[91.1040059375453,24.1467635310839],[91.0810769341393,24.1490347403049],[91.0772650110542,24.1370751382554],[91.054868917878,24.1322683330853],[91.0444313590744,24.1096745640154],[91.0240930324914,24.1227845011311],[91.0257873850353,24.139209417019],[91.0456142527881,24.1499653812047],[91.0474430065901,24.1651980104831],[91.0602890265455,24.1671903682503],[91.0717941388502,24.1806661989308],[91.0835588133666,24.1790522739637]]]]}
				},{
					"type": "Feature",
					"properties": {"OBJECTID": "4051","UNINAME": "Sarail","Union_Code_st": "76","un_uid": "20129476","Div_Code": "20","Dis_Code": "12","Upa_Code": "94","Union_Code": "76","ruo": ""},
					"geometry": 
						{"type":"MultiPolygon","coordinates":[[[[91.1309403711967,24.0787245214964],[91.1328087830789,24.0513622704691],[91.1316953783098,24.0501400164175],[91.1145691451193,24.0543821818411],[91.0836672741941,24.0448148134027],[91.095309958249,24.0698459958489],[91.0964288875406,24.0835201882729],[91.1070396162736,24.0783298628595],[91.1309403711967,24.0787245214964]]]]}
				},{
					"type": "Feature",
					"properties": {"OBJECTID": "4052","UNINAME": "Shahbazpur","Union_Code_st": "85","un_uid": "20129485","Div_Code": "20","Dis_Code": "12","Upa_Code": "94","Union_Code": "85","ruo": ""},
					"geometry": 
						{"type":"MultiPolygon","coordinates":[[[[91.1710741320995,24.0690646687707],[91.1724429465484,24.0604532726262],[91.2056099380795,24.0607385517499],[91.2225537795263,24.0528877720148],[91.2236062727284,24.0514840854739],[91.1996688397234,24.0428678005308],[91.1835544469859,24.0299151642999],[91.1732402092101,24.0013688503501],[91.1730280640545,24.0021629513137],[91.1727839699708,24.0044485539012],[91.172933833923,24.0144024749673],[91.173053350671,24.0146397546291],[91.1728162726735,24.0180389441421],[91.1644991811249,24.025546244154],[91.1628510923697,24.0271250906961],[91.1591685291361,24.0315477514669],[91.1588010280138,24.0333296550731],[91.1589846805552,24.0347568690963],[91.1568278382115,24.0354770358318],[91.1569647381075,24.0384793998908],[91.1573702376448,24.0391508442013],[91.1574659810672,24.039410328396],[91.1550070373293,24.0503406905983],[91.1548321913317,24.050789612071],[91.1552602673621,24.0641416255641],[91.1710741320995,24.0690646687707]]]]}
				},{
					"type": "Feature",
					"properties": {"OBJECTID": "4053","UNINAME": "Shahjadapur","Union_Code_st": "90","un_uid": "20129490","Div_Code": "20","Dis_Code": "12","Upa_Code": "94","Union_Code": "90","ruo": ""},
					"geometry": 
						{"type":"MultiPolygon","coordinates":[[[[91.23781974926,24.1034050236845],[91.2482248041836,24.0827132048759],[91.2225537795263,24.0528877720148],[91.2056099380795,24.0607385517499],[91.1724429465484,24.0604532726262],[91.1710741320995,24.0690646687707],[91.1749597033318,24.0918460308185],[91.1915702528051,24.0845361715508],[91.2115524518583,24.1101499321527],[91.23781974926,24.1034050236845]]]]}
				},{
					"type": "Feature",
					"properties": {"OBJECTID": "4054","UNINAME": "Uttar Panisar","Union_Code_st": "94","un_uid": "20129494","Div_Code": "20","Dis_Code": "12","Upa_Code": "94","Union_Code": "94","ruo": ""},
					"geometry": 
						{"type":"MultiPolygon","coordinates":[[[[91.0964288875406,24.0835201882729],[91.095309958249,24.0698459958489],[91.0836672741941,24.0448148134027],[91.0833416726588,24.0423419977513],[91.0676980324047,24.0448265361302],[91.0686035014688,24.0600615712718],[91.042903194101,24.0678110370767],[91.0537535668785,24.086107371672],[91.0703664510858,24.0909416459065],[91.0964288875406,24.0835201882729]]]]}
				}]}