{
	"type": "FeatureCollection",
	"features": [{
					"type": "Feature",
					"properties": {"OBJECTID": "103","UPAZILA": "Bheramara","Div_Code": "40","MEAN_DISTC": "50","MEAN_UZCOD": "15","ruo": ""},
					"geometry": 
						{"type":"MultiPolygon","coordinates":[[[[89.0593005826168,23.9987153665472],[89.0567606252602,23.9990401388395],[89.0513966626638,23.9951409879286],[89.0384537669709,23.9911762632246],[88.9952643907686,23.9873844810247],[88.9641716245173,24.0071200529975],[88.9188218364768,24.0268540363151],[88.9107291854168,24.0521089507364],[88.9241814738268,24.0723403166726],[88.9273592668524,24.1109562963561],[88.926177207979,24.1148788075342],[88.9191745613264,24.1176296459916],[88.9198469014212,24.1207597419276],[88.9202938550484,24.1208870801869],[88.9201529440808,24.1188077920072],[88.920206007382,24.1185304593853],[88.9203160508607,24.1183884322227],[88.9205563890807,24.1185493047118],[88.9210477392837,24.1188084704064],[88.9225291972746,24.119804451457],[88.9229165222744,24.1197817829934],[88.9245199821067,24.1210472823446],[88.9281707128476,24.1235796544449],[88.9326488531428,24.1276609270707],[88.9384591800492,24.131740052562],[88.9397109856304,24.1320908056639],[88.9399750636058,24.1320265987671],[88.940101481073,24.1319862716257],[88.9402082412818,24.1319429857024],[88.94037772293,24.131864010295],[88.9407260768234,24.1316112967427],[88.9413070380057,24.1301110711039],[88.9416180399654,24.1297627045218],[88.9419653553216,24.1294857093638],[88.9421567487997,24.1293967235804],[88.9423456541661,24.1293111070071],[88.9424554725103,24.1292695339413],[88.9425493100358,24.1292267212341],[88.9428436212836,24.1291124825744],[88.9430433546205,24.129056291401],[88.943271940351,24.1289692549437],[88.943378701674,24.1289254022459],[88.9434691654338,24.1288814367143],[88.9435593216336,24.1288374689994],[88.9436502751134,24.1288087468611],[88.9437393217183,24.1287500956925],[88.9440658176617,24.1285734234035],[88.9450286114349,24.1278660498627],[88.9470763146311,24.1264809123897],[88.9475937414304,24.1261943519362],[88.9481352964015,24.1259277115721],[88.9488528087169,24.1255403592667],[88.9490648537224,24.1254441687736],[88.9491629728182,24.1254036391031],[88.9494237117277,24.1252942363412],[88.94991329089,24.1251028681584],[88.9523063764085,24.1249454528624],[88.9547100645146,24.1249207182949],[88.9570285534675,24.1244432390559],[88.9653058873659,24.1237753485954],[88.9676047113229,24.1232891070269],[88.9893316769665,24.121787344887],[88.9975943060209,24.1206812729405],[88.9986101812336,24.1204582027079],[88.9989402708186,24.120440045942],[88.9991151682019,24.120409582524],[88.9995889578445,24.1202997950911],[88.9997653261649,24.1202382954707],[88.999907445095,24.1201918117194],[89.0000663615312,24.1201601136517],[89.0006549538957,24.1199573746182],[89.0010312727332,24.1198463804551],[89.0012281404438,24.1197979956613],[89.0014080964152,24.1197495000526],[89.0015706308048,24.1196873434061],[89.001768121818,24.1196378330649],[89.0020012851301,24.1195879910741],[89.0022362088951,24.1195093729465],[89.0026131489101,24.1193972499527],[89.0027733112282,24.1193632993303],[89.0029159338289,24.1193309274193],[89.0031839641731,24.1192655063987],[89.0034319991555,24.119201083365],[89.003610099918,24.1191537019235],[89.0037875943314,24.119105187403],[89.0039821180983,24.1190415433824],[89.0041046270612,24.1190254084355],[89.0042279868177,24.1189787982772],[89.0044199280677,24.1189309416389],[89.0045942161006,24.1188993389664],[89.0047667770278,24.1188524845092],[89.005229389361,24.1187155125285],[89.0058338323453,24.1184891491396],[89.0064309237534,24.1181791958526],[89.0076004326336,24.117727329945],[89.0096416831878,24.1161160686555],[89.0145054318985,24.1106333291768],[89.016957892557,24.1048730194003],[89.0254922549375,24.0936091174929],[89.0481337374771,24.0196215713164],[89.0560089581011,24.0042077594784],[89.0593005826168,23.9987153665472]]]]}
				},{
					"type": "Feature",
					"properties": {"OBJECTID": "123","UPAZILA": "Khoksa","Div_Code": "40","MEAN_DISTC": "50","MEAN_UZCOD": "63","ruo": ""},
					"geometry": 
						{"type":"MultiPolygon","coordinates":[[[[89.3555965340288,23.8857843614433],[89.3557417776171,23.8857121482052],[89.3561150311064,23.8854664563938],[89.3567948133078,23.8851215629033],[89.3569562459499,23.8850652223485],[89.3575048496578,23.884865420255],[89.3592424980472,23.8837538118585],[89.3593416768828,23.8836226945708],[89.3599911070842,23.8832042742523],[89.3605915969852,23.882874839949],[89.3607698195758,23.8827739689683],[89.3605523240025,23.880684952153],[89.3605113712141,23.8802738204697],[89.3603839015734,23.8792295161637],[89.3598901139577,23.8777134537495],[89.3588347233813,23.8759308618149],[89.3585909381166,23.8755725127677],[89.3584237403032,23.8753064973354],[89.3584122803835,23.8747046842153],[89.3585604864962,23.8745890132141],[89.3618662906802,23.872939146775],[89.3620636891831,23.8723043285616],[89.3621962531145,23.8716839186436],[89.3623702281306,23.8712561774234],[89.3627037233587,23.8708449026021],[89.3631279496086,23.8705830325938],[89.3629212315997,23.8699877498721],[89.3624902429973,23.8699385471728],[89.3602492788297,23.8690232158065],[89.3595306983619,23.8694752220682],[89.3592241143341,23.8695309617603],[89.3581479830263,23.8690443892808],[89.357622767013,23.8680012456681],[89.3575196640961,23.8677479157703],[89.3572342564903,23.8668096407948],[89.3570951027755,23.8662744704359],[89.356517630969,23.8650651393651],[89.355702890333,23.8646699637374],[89.355517408021,23.8641334690913],[89.3548153259789,23.8637974691969],[89.3541999106336,23.8636859394411],[89.3539154862756,23.8632365267668],[89.3534319440801,23.8630216776734],[89.3528525073007,23.8628352140558],[89.352565422047,23.8624902218074],[89.3522839139732,23.8620114640212],[89.3517412202581,23.8609800818755],[89.3515176638118,23.8606364841267],[89.3516981318335,23.8592779076301],[89.3516152193261,23.8576229841009],[89.35158943903,23.8569449007295],[89.3515320821102,23.8561368473664],[89.3514761930476,23.8550956579756],[89.3514663549689,23.8547292503603],[89.3514983815403,23.8540288297575],[89.3515073514714,23.8537680644313],[89.3515125760893,23.8524098779896],[89.3505985444354,23.8495422734009],[89.3508990508218,23.8482333140245],[89.3510979192772,23.8474906930524],[89.351444762345,23.845192906697],[89.351454672876,23.8448045658814],[89.3514817561216,23.8444185553601],[89.3514721281594,23.8441949690589],[89.3514526504534,23.8437923917605],[89.3513887021868,23.8425214114422],[89.3513918046152,23.8418361097363],[89.3514016729022,23.8417029269776],[89.3513750798058,23.8413737058705],[89.3510728760594,23.8409936475431],[89.35060653122,23.8408550717161],[89.3495011614196,23.8408701675749],[89.3484767421954,23.8401602029415],[89.3482362484885,23.8400214456717],[89.3471291911045,23.8397621658646],[89.3468069809827,23.8397037850528],[89.3461569568876,23.8394808698635],[89.3460213129603,23.8394227143432],[89.3452607579565,23.8390909405202],[89.3447934703981,23.8387762163466],[89.3444138763557,23.8383529135226],[89.3443280782993,23.838084971053],[89.3441140417492,23.8373242305813],[89.3438900018742,23.836905539964],[89.3437466365099,23.8366142071916],[89.3434560160129,23.8355245951025],[89.3428541773,23.8358528328653],[89.3426509454088,23.8359338201021],[89.3421636227623,23.8353971504663],[89.3413762336754,23.8337019529355],[89.341233225157,23.8333417492263],[89.3408433206773,23.832049613476],[89.3407015713312,23.8310159546164],[89.3400067235624,23.8303237149441],[89.3393546255713,23.8303401150346],[89.3368691835693,23.8294572763091],[89.3367476054862,23.8292907874906],[89.3364641032753,23.8287465093643],[89.3363986484784,23.8273185829294],[89.3363874326639,23.8262058861155],[89.336385830474,23.8260986223758],[89.336377642828,23.8258383481551],[89.3373755331717,23.8250912775413],[89.3379250810637,23.824539854126],[89.3379625681162,23.824347517201],[89.3379798442503,23.8239055800719],[89.3379762093711,23.8235939549455],[89.3377243673852,23.8226162710847],[89.3375986793682,23.8223537985219],[89.3373021211927,23.8216034193878],[89.3372366199902,23.8214518491616],[89.3369913930897,23.8210460412104],[89.336823274879,23.8207416118277],[89.3367426926338,23.8205995732056],[89.336575438569,23.8203064374755],[89.3364172402842,23.8199822924775],[89.3363579958591,23.8195659935352],[89.3365296630973,23.8194131854448],[89.3367220359052,23.8186874883107],[89.3359446747642,23.8172248838434],[89.335737817718,23.8167571429667],[89.3343317240157,23.8138161910477],[89.3340223968582,23.8128698652262],[89.3339159471691,23.8124477162299],[89.3338949548005,23.8122929496962],[89.3341229673843,23.8120387754423],[89.3337304222688,23.8108685434631],[89.3332063953364,23.8105157180269],[89.3312243795863,23.8077980515091],[89.3310604345991,23.8072836360072],[89.3309060064468,23.8067681325752],[89.3305295380243,23.8059411847066],[89.3295472571848,23.8040277438118],[89.3293734629242,23.803581589479],[89.3289692018782,23.8019579922003],[89.3288004222606,23.8009546867266],[89.3287529057482,23.8005903704649],[89.3287824031386,23.8001033258109],[89.3288065225915,23.7999464966701],[89.3288279340887,23.799719656376],[89.328860368878,23.7994369774224],[89.328846097908,23.7992890134562],[89.328797681763,23.7981445388752],[89.32879539573,23.7978729990708],[89.328783377377,23.7971074696322],[89.3288222069641,23.7965352241284],[89.3289481919832,23.7952983632267],[89.3289581624446,23.79514881107],[89.3280893211195,23.7946973732882],[89.3270305990534,23.7946650992136],[89.3269914947736,23.7940981593798],[89.3269715039917,23.7923215549874],[89.3269966383047,23.79172949209],[89.3270080627761,23.7914766407672],[89.3273196638258,23.7908299398933],[89.3274886530879,23.7907747896422],[89.3288598921479,23.7906311625555],[89.3294527175133,23.7905902717227],[89.3296122720886,23.7905802390747],[89.3304274863333,23.7900593461479],[89.3303768751194,23.7897000970502],[89.3301769240083,23.7881360960084],[89.3301989868472,23.7875417606182],[89.3302866587198,23.7868935166716],[89.3303331480309,23.7862010620151],[89.3302716946307,23.7853241080541],[89.3302305090593,23.7847419172999],[89.3302038206679,23.7842636596502],[89.3302220547055,23.7838776123703],[89.3288522334145,23.7836396489307],[89.3284373343138,23.7822480156487],[89.3284594398087,23.7817660183175],[89.3292825704959,23.781425808333],[89.3296399784882,23.7813494578455],[89.3301140153042,23.7798211219013],[89.3301915798137,23.7789893668292],[89.3287678651289,23.7774894840122],[89.3245173411601,23.7768144208565],[89.323411539878,23.7768400633539],[89.3214212042726,23.7769837480273],[89.320410176935,23.7770086564175],[89.3200795908202,23.7770597007621],[89.3189188448703,23.7758566911457],[89.3183333441596,23.7758580592605],[89.3176845179835,23.7760047894238],[89.3174600175945,23.7760625065302],[89.316713571936,23.7761670271918],[89.3150820849237,23.7762518149019],[89.3112319203484,23.7752863107374],[89.3121963059,23.7734553820956],[89.3116746772361,23.7704713074102],[89.3110776861676,23.7696309102211],[89.3109711926705,23.7694701138331],[89.3104415955807,23.7684713870546],[89.3108320318327,23.7681750673485],[89.3113148149,23.7679299644523],[89.3119830654105,23.7676405252791],[89.3120236325879,23.7676243351226],[89.3124720739746,23.7674355267572],[89.3139280268639,23.7671174059384],[89.3145790254602,23.7670751350613],[89.3154353961785,23.7668768373148],[89.3154740872344,23.7668674120714],[89.3161409930881,23.7667738344412],[89.3174285823199,23.7673338807754],[89.3194592355918,23.7672530833056],[89.3209372860447,23.7671647500955],[89.3217921692097,23.7671335061925],[89.3221164582035,23.7671682359607],[89.3222644942794,23.7671858209451],[89.3227065497019,23.7671612277838],[89.3228451169318,23.7671714320262],[89.3229826356649,23.7671471962612],[89.3221912642983,23.7661072800021],[89.32198811963,23.7660126793344],[89.3218543668047,23.7650145978273],[89.3217731148987,23.7645970660121],[89.3215200352578,23.7631914462393],[89.3213363747551,23.7622383059034],[89.3212916143883,23.7619400463252],[89.3208438151881,23.760770100668],[89.3206701327466,23.7603775649082],[89.319642139435,23.7586174053375],[89.3193760852397,23.7575312390299],[89.3195191155694,23.7573297732328],[89.3193464390839,23.7569812724421],[89.3185509756417,23.755625192325],[89.3181048638767,23.7550818559742],[89.3174147080331,23.7542354258887],[89.3170736780692,23.7537128732463],[89.3167119042879,23.7522887001566],[89.3166722715092,23.751010466279],[89.3165272863001,23.7495307994658],[89.3164730291956,23.7492923347437],[89.3150286929057,23.7474873998194],[89.3139960537333,23.7474083042271],[89.3134893875357,23.7473699257561],[89.3129810493614,23.7473580703341],[89.3121201685716,23.7472712579014],[89.3115118844326,23.7471979853644],[89.3111944139385,23.7471011681264],[89.3106237722691,23.746168305939],[89.3103031272658,23.7455103463956],[89.3096768643226,23.7448939246423],[89.3088158387455,23.7447799968293],[89.30596566986,23.7449066607392],[89.3058563272298,23.7448254443749],[89.3047949041651,23.7427799592327],[89.3044299403905,23.7425643669724],[89.304328717391,23.7425136698051],[89.3039320388071,23.7423233367575],[89.3037361171553,23.7422637450768],[89.3029790572636,23.7421502533575],[89.3027012914066,23.7421439200724],[89.3026087839389,23.7421265673794],[89.3023407367155,23.7420226165307],[89.3022771746014,23.7418095082337],[89.3011545656971,23.7405004122787],[89.3008319333107,23.7402262936844],[89.3005002396275,23.7399267303459],[89.3004546710624,23.7397899119962],[89.3003725485711,23.7395507513479],[89.3002877624651,23.7393510945158],[89.3001141245108,23.7385650708181],[89.2997358646429,23.7383166657751],[89.2985371061596,23.737382043069],[89.2984554449736,23.7370576420382],[89.2984100154928,23.7368954206362],[89.2983741361136,23.7367247748605],[89.2982089900924,23.7363023340503],[89.2981602133241,23.7360209851016],[89.2647824571842,23.7445869903832],[89.2471552868677,23.7637631401411],[89.2464005432735,23.8003258644726],[89.2611742772354,23.8318644734256],[89.2817348772468,23.8280479362251],[89.2945578789247,23.8445641785483],[89.2854653613678,23.8566342768024],[89.3024585062083,23.870902680337],[89.3135534002377,23.8722661511571],[89.3171458030609,23.8739999154372],[89.3173688905988,23.8751220111941],[89.3173522080364,23.8752596763516],[89.3173445458451,23.8754916537822],[89.3231522118596,23.8767067116818],[89.330531916308,23.8792798236504],[89.3373695139723,23.8827009631589],[89.342201195028,23.8859958249811],[89.3455306570009,23.8879180514911],[89.3466870823719,23.8889407700079],[89.3471501312485,23.8892187787805],[89.3473456440959,23.8892241242471],[89.3474607427937,23.8891659037884],[89.3475831874711,23.8890506992828],[89.3478815499737,23.8886855996507],[89.3489981983842,23.8877859891594],[89.3500943401426,23.8870556354861],[89.3514618554522,23.8829935705927],[89.351869703028,23.8826430365121],[89.3520323567381,23.8825878352448],[89.3522262683931,23.8825429264945],[89.3523809587834,23.8825458355401],[89.3529403710597,23.8826407676705],[89.3536629053386,23.8828334781229],[89.3543398188013,23.88343639037],[89.3549300227117,23.8843798984434],[89.3553191107086,23.8852745788008],[89.3553532504501,23.8859425334119],[89.3555965340288,23.8857843614433]]]]}
				},{
					"type": "Feature",
					"properties": {"OBJECTID": "127","UPAZILA": "Kumarkhali","Div_Code": "40","MEAN_DISTC": "50","MEAN_UZCOD": "71","ruo": ""},
					"geometry": 
						{"type":"MultiPolygon","coordinates":[[[[89.3173445458451,23.8754916537822],[89.3173522080364,23.8752596763516],[89.3173688905988,23.8751220111941],[89.3171458030609,23.8739999154372],[89.3135534002377,23.8722661511571],[89.3024585062083,23.870902680337],[89.2854653613678,23.8566342768024],[89.2945578789247,23.8445641785483],[89.2817348772468,23.8280479362251],[89.2611742772354,23.8318644734256],[89.2464005432735,23.8003258644726],[89.2471552868677,23.7637631401411],[89.2156625834761,23.7596543596908],[89.1965138107018,23.7439801929585],[89.1678993721636,23.7410356559469],[89.1328086409658,23.7594503064396],[89.1595268906154,23.8469717571538],[89.1517689898889,23.8540666741317],[89.1559442975275,23.9039600467875],[89.166484487191,23.9255273672681],[89.1942809929854,23.9557809477257],[89.183988002129,23.9674227564585],[89.1791895502886,23.9668727629387],[89.1790637643396,23.96685007527],[89.1789941745092,23.9666837441823],[89.1785728890436,23.9667136658718],[89.1782943299006,23.9666133898263],[89.1781320734528,23.9666266332499],[89.1780533582652,23.9665917781074],[89.1775768854803,23.9667997790429],[89.1774774279688,23.967323088908],[89.17793083327,23.9696867617938],[89.1796695240928,23.976009271717],[89.1763039281163,23.9774532580771],[89.1777694339221,23.9874214509398],[89.1977809684573,23.9871317106833],[89.2087828478711,23.9887897403525],[89.212403561852,23.9885769348931],[89.2142020914852,23.9886471240547],[89.2144687524113,23.9886451030157],[89.2147806694592,23.9886269430549],[89.2152710025809,23.9885690522342],[89.2156943885915,23.988507430603],[89.2160728729768,23.9885048495388],[89.2162781710129,23.9884900929859],[89.2164215502931,23.988402200919],[89.2164862517195,23.9882693122952],[89.2164788822936,23.9867965256152],[89.2167918016388,23.9845802499085],[89.2159438092465,23.97267875775],[89.2162113133378,23.971871775957],[89.2165158797408,23.971538589127],[89.2166792624739,23.9714920060601],[89.2168748274876,23.9714568768248],[89.2170534003151,23.9714380308352],[89.2172644422115,23.9714340269615],[89.2178008160078,23.9714215204994],[89.2184982011721,23.9714499109],[89.2193134753908,23.9713863216269],[89.2202205261808,23.9714863318031],[89.2234991673814,23.9731727162605],[89.227477486753,23.9747270784849],[89.2293068355922,23.9758342100783],[89.2297641132699,23.9759539200113],[89.2300968202165,23.9759984909419],[89.2301195937031,23.9759912668344],[89.2302919221918,23.975938504805],[89.2305205011103,23.9758792507845],[89.2315987352382,23.975194282481],[89.232577379856,23.9744151028935],[89.2370058913051,23.9728859653383],[89.2354049710636,23.9497095712079],[89.2623622005734,23.9097892856276],[89.3038751180997,23.8887778777763],[89.3047190248239,23.8831383582275],[89.3120278388597,23.8743813132264],[89.3122351423441,23.8742998219158],[89.3123799130811,23.8742609533421],[89.3125956132532,23.8742749002784],[89.3127609895801,23.8742863642423],[89.3129766928287,23.8742997461553],[89.3147240055105,23.8748353460564],[89.3154834300143,23.8749973506426],[89.3168129208034,23.8753769588463],[89.317135442462,23.8754483884807],[89.3173445458451,23.8754916537822]]]]}
				},{
					"type": "Feature",
					"properties": {"OBJECTID": "128","UPAZILA": "Kushtia Sadar","Div_Code": "40","MEAN_DISTC": "50","MEAN_UZCOD": "79","ruo": ""},
					"geometry": 
						{"type":"MultiPolygon","coordinates":[[[[89.1678993721636,23.7410356559469],[89.1580620986304,23.7223143507588],[89.1407568709378,23.7252257153274],[89.1209498654563,23.7128145643484],[89.1184650497201,23.6938270570992],[89.1120624742042,23.7123714918505],[89.08369465457,23.7437460401712],[89.0822607642729,23.7583369803421],[89.0517113835318,23.7617098990142],[89.0649971800889,23.7338006453892],[89.0377239089482,23.6922664046128],[89.0172624276957,23.7087434245948],[89.0022129936104,23.7750139853996],[88.9882664169715,23.7862557171237],[89.0053646833808,23.8228875132823],[89.0206765794404,23.833103257212],[89.0253763374158,23.8517535094905],[89.0600337213092,23.875656210174],[89.0905085714452,23.8875500577869],[89.096784870613,23.9102605999505],[89.0855427124442,23.9208430698166],[89.0878801460989,23.945227783557],[89.0986168567338,23.9598626291238],[89.0989487298948,23.9598369178905],[89.0993062957196,23.9598706269169],[89.1027053715749,23.9594084665112],[89.1041366730543,23.9594377111036],[89.1102311680198,23.9592693767312],[89.1248910435439,23.9624210304106],[89.1269526785779,23.9621685921778],[89.1280334007757,23.9619969230931],[89.1284438229978,23.9618914378757],[89.1288814732501,23.9612532356031],[89.1319476691546,23.9606846720688],[89.1356360035089,23.955566436023],[89.1482824912191,23.9505573174274],[89.1484241430957,23.9505456843465],[89.1485776460788,23.9505064571167],[89.1486795460941,23.950468637124],[89.1487657249998,23.9504397616668],[89.1489526639424,23.9504063642327],[89.150155479454,23.95023634175],[89.1507005182297,23.9502004075979],[89.1509654691906,23.9501657456595],[89.1515893972825,23.9501353248348],[89.15190666526,23.9501308679665],[89.1519628707154,23.9501300493855],[89.1533985219978,23.9499042739701],[89.1561845496305,23.9498129198831],[89.1589616320927,23.9508165674659],[89.1602544760429,23.9512074925821],[89.1605888496029,23.9512652047458],[89.1608099187246,23.9512252055701],[89.1609835042196,23.9511194663474],[89.1612641321377,23.9507975492107],[89.1616800533261,23.950021959331],[89.1617894575911,23.9499153042724],[89.1619155475734,23.9498403513802],[89.1620345167065,23.9498218080798],[89.1622161401415,23.9498024775303],[89.1623904406748,23.9497757685115],[89.1635181274703,23.9497757056891],[89.1702569488537,23.9510671164393],[89.1793611979829,23.9620772419256],[89.1784084400794,23.9642623520277],[89.1785290624513,23.965002474334],[89.1787769917852,23.9658160963697],[89.1790866984307,23.9664782016784],[89.179152531167,23.9666558023557],[89.1791895502886,23.9668727629387],[89.183988002129,23.9674227564585],[89.1942809929854,23.9557809477257],[89.166484487191,23.9255273672681],[89.1559442975275,23.9039600467875],[89.1517689898889,23.8540666741317],[89.1595268906154,23.8469717571538],[89.1328086409658,23.7594503064396],[89.1678993721636,23.7410356559469]]]]}
				},{
					"type": "Feature",
					"properties": {"OBJECTID": "156","UPAZILA": "Daulatpur","Div_Code": "40","MEAN_DISTC": "50","MEAN_UZCOD": "39","ruo": ""},
					"geometry": 
						{"type":"MultiPolygon","coordinates":[[[[88.9198469014212,24.1207597419276],[88.9191745613264,24.1176296459916],[88.926177207979,24.1148788075342],[88.9273592668524,24.1109562963561],[88.9241814738268,24.0723403166726],[88.9107291854168,24.0521089507364],[88.9188218364768,24.0268540363151],[88.9641716245173,24.0071200529975],[88.9722289736808,23.989252634053],[88.9502231029737,23.9617718508701],[88.9630476212254,23.9368679421459],[88.9457153876093,23.9126846358022],[88.8961242156583,23.9026679598369],[88.8814148584706,23.8781116184657],[88.8731838842702,23.909259816311],[88.8427142083132,23.9376573454041],[88.8156881384495,23.9277039482986],[88.8095371852553,23.9670450298152],[88.7907706702598,23.9754529682306],[88.7679483510293,23.9570028374903],[88.7582971522232,23.969870981972],[88.734528270995,23.9629747510177],[88.7368522984394,23.9815462129212],[88.7658971035857,23.9817216638181],[88.7617039354539,24.0047980689147],[88.7285082784342,23.9964916748047],[88.7397286182707,24.0455231344085],[88.7235429761674,24.0686083237714],[88.724666745566,24.1036395372661],[88.7080171146745,24.1192204195093],[88.7464469755742,24.1469501142921],[88.7312246008699,24.1727689276642],[88.7323868561227,24.1823172413768],[88.7329115584472,24.188837792412],[88.7333849299768,24.1936753874095],[88.7334351490683,24.1939173748621],[88.7382252369402,24.1935885470745],[88.7572170655393,24.1618170306755],[88.7845478224645,24.1349831544131],[88.8195002976572,24.1211296638022],[88.8437217360336,24.125877851156],[88.8463783908211,24.1239427339673],[88.8563837934972,24.1152940229113],[88.858409898083,24.113199868266],[88.8591666728451,24.1125315807651],[88.8599615114602,24.1123207691277],[88.8604386573174,24.1119444610415],[88.8606009260069,24.1118835829174],[88.8607102980674,24.1118240035027],[88.8607773994665,24.1117810420109],[88.8609120971635,24.111708669172],[88.8614184166211,24.1114053880503],[88.8712790092408,24.1108418625383],[88.8756812870782,24.1124338722287],[88.8774717772127,24.1138005687446],[88.8803274136792,24.115061602689],[88.8809646282615,24.1152604395938],[88.8811285065979,24.1152260800761],[88.8811606379375,24.115137698022],[88.8812041550793,24.1150482704582],[88.8814332035473,24.1142727111026],[88.8819192309602,24.1122307305876],[88.8831939346235,24.1066402188978],[88.8816113651971,24.1060822641553],[88.8743802447993,24.1002092106],[88.8739716537598,24.0994001776534],[88.8739490633948,24.0991708477342],[88.8740433401774,24.0991128402854],[88.8745048260029,24.0994628066698],[88.8755329465911,24.1000223985006],[88.8763162608749,24.1002398252768],[88.8791230115282,24.10065328685],[88.8836106525229,24.1027977140087],[88.885145117937,24.1018058995441],[88.9065348976523,24.1118083167681],[88.9114001180413,24.1128923638083],[88.9105274738419,24.125606483943],[88.9137478861872,24.1268215319405],[88.9219184425736,24.1290965742983],[88.9223376479016,24.129126062237],[88.9224713055043,24.1291027342374],[88.9225844977933,24.1290628927885],[88.9227230890103,24.1289645280327],[88.9228083032807,24.1288872355867],[88.922939958905,24.1281848642203],[88.922934084631,24.1277479413704],[88.9200867060573,24.1249044733138],[88.9198469014212,24.1207597419276]]]]}
				},{
					"type": "Feature",
					"properties": {"OBJECTID": "158","UPAZILA": "Mirpur","Div_Code": "40","MEAN_DISTC": "50","MEAN_UZCOD": "94","ruo": ""},
					"geometry": 
						{"type":"MultiPolygon","coordinates":[[[[89.0593005826168,23.9987153665472],[89.0596299407047,23.9976550514542],[89.0595977119473,23.9969746655697],[89.0598960716789,23.9966705514304],[89.0603115604564,23.9955509283445],[89.0626351739753,23.991619489099],[89.0628140081044,23.9873695398279],[89.070272845327,23.9794953654683],[89.0727571660268,23.9778739888421],[89.0748003605832,23.9771959704541],[89.0750799088719,23.9770198463146],[89.0754145389691,23.9769157418567],[89.0756976932447,23.9768367279397],[89.0760090796647,23.9767183702679],[89.0761531720304,23.9766706930754],[89.076547257358,23.9765421071682],[89.0768597181001,23.9764452042413],[89.0770154815472,23.9763975964382],[89.0776989662236,23.976218251888],[89.0780914286723,23.9761015061565],[89.0785082314568,23.9759741805514],[89.0789487400479,23.9758390934367],[89.0793465261307,23.9757077000314],[89.0793849998346,23.9756966413623],[89.0797097064193,23.9756048862657],[89.0801387199125,23.9754877899339],[89.080503131612,23.9753844171629],[89.082433407839,23.9749393111628],[89.0893616573433,23.9747265692042],[89.0909933148854,23.9744161853857],[89.0922769697046,23.9741037258368],[89.0926367047262,23.9739207050025],[89.0927103455337,23.9738878362924],[89.0931495536655,23.9737600383379],[89.0940620940917,23.9733680366224],[89.0954834029176,23.9730462017683],[89.0962060823118,23.9725260603921],[89.0965489708922,23.9635669973488],[89.0986168567338,23.9598626291238],[89.0878801460989,23.945227783557],[89.0855427124442,23.9208430698166],[89.096784870613,23.9102605999505],[89.0905085714452,23.8875500577869],[89.0600337213092,23.875656210174],[89.0253763374158,23.8517535094905],[89.0206765794404,23.833103257212],[89.0053646833808,23.8228875132823],[88.9882664169715,23.7862557171237],[88.957851890041,23.8089670712818],[88.9381818298639,23.8041071701361],[88.9032221819587,23.839747923153],[88.8914351033115,23.8274361770098],[88.8589664830223,23.8326547693945],[88.8646245327729,23.8538411862289],[88.8814148584706,23.8781116184657],[88.8961242156583,23.9026679598369],[88.9457153876093,23.9126846358022],[88.9630476212254,23.9368679421459],[88.9502231029737,23.9617718508701],[88.9722289736808,23.989252634053],[88.9641716245173,24.0071200529975],[88.9952643907686,23.9873844810247],[89.0384537669709,23.9911762632246],[89.0513966626638,23.9951409879286],[89.0567606252602,23.9990401388395],[89.0593005826168,23.9987153665472]]]]}
				}]}