{
	"type": "FeatureCollection",
	"features": [{
					"type": "Feature",
					"properties": {"gid": "4138","UNINAME": "Farajikandi","Union_Code_st": "13","un_uid": "20137913","divid": "20","Dis_Code": "13","Upa_Code": "79","Union_Code": "13","ruo": ""},
					"geometry": 
						{"type":"MultiPolygon","coordinates":[[[[90.6265223747204,23.3555751275432],[90.6374087921609,23.3376491774277],[90.6601636436986,23.3317271210226],[90.6551242221498,23.3329564044262],[90.6405844979298,23.3281332036214],[90.6378386082929,23.3203655034209],[90.6297756687295,23.3346484351696],[90.6296140001146,23.3369259051796],[90.632668627169,23.3409698672489],[90.6324462472465,23.3416504799264],[90.6278241288985,23.3491973114972],[90.6265223747204,23.3555751275432]]]]}
				},{
					"type": "Feature",
					"properties": {"gid": "4136","UNINAME": "Baganbari","Union_Code_st": "11","un_uid": "20137911","divid": "20","Dis_Code": "13","Upa_Code": "79","Union_Code": "11","ruo": ""},
					"geometry": 
						{"type":"MultiPolygon","coordinates":[[[[90.6877561987789,23.4924739469489],[90.6880262997228,23.4922712168287],[90.6883498743196,23.491875744728],[90.6887209420266,23.4910792445173],[90.6889248077002,23.4906165564187],[90.6894000210949,23.4898393528064],[90.6895689516352,23.4896037602077],[90.6896916502334,23.4894231316166],[90.6898762317257,23.4891372260972],[90.6901470460025,23.4886031090503],[90.6904382938743,23.4881146281031],[90.6906229366763,23.4878411411473],[90.6908273259891,23.4875986157098],[90.6909052208857,23.4875124615882],[90.691090323841,23.4873276035585],[90.6911682213514,23.4872420138292],[90.6913915791775,23.4869988390223],[90.6914659247363,23.486936410711],[90.691621898328,23.4867996665005],[90.6917222228478,23.4866722016251],[90.691995070845,23.4862955768101],[90.6920454459775,23.4862140605637],[90.6925121981234,23.4856982635123],[90.6928815828583,23.4849390201643],[90.6929560400745,23.4847811847728],[90.6931576848866,23.4846007670683],[90.693227346851,23.4843452888524],[90.693510159223,23.4831839177212],[90.6939275766721,23.4818983143605],[90.6939617683015,23.4816486389928],[90.694277764895,23.480749061481],[90.6943350463597,23.4805845275297],[90.6946062281509,23.4798934612704],[90.6946273440983,23.4797183622275],[90.6946326570745,23.479681079434],[90.6947195831511,23.4794509275209],[90.6947627874075,23.4794033142909],[90.6950129526887,23.4787902464047],[90.6951848296477,23.4781871242632],[90.6953247588433,23.4780278667194],[90.6954454812531,23.4777072385164],[90.6956380600507,23.4772011230613],[90.6958124255906,23.4767233152591],[90.6958671223065,23.4765333883146],[90.6961634854694,23.4757456718987],[90.6964171779418,23.4749908883728],[90.696481737575,23.4746981722644],[90.6965335800978,23.4745477750853],[90.6966111466367,23.4744012146942],[90.6969676738111,23.4736510515947],[90.6972471758895,23.473034461762],[90.6972694034489,23.4726058822718],[90.6975683266672,23.4721918721563],[90.697915024176,23.4715529637638],[90.6979496363787,23.4715014364011],[90.6981191292863,23.4711472803984],[90.6981258581528,23.4710303920548],[90.698247384904,23.4705161234083],[90.6982229154243,23.4701690454742],[90.698331714594,23.4700274251856],[90.6986111859425,23.4697563269428],[90.6990681406025,23.4690226451321],[90.6993496188919,23.4686685503233],[90.6994029476383,23.4685689534482],[90.6997330156791,23.4682614962535],[90.7000727693771,23.4674701905108],[90.7001871151,23.4672207183435],[90.700345958725,23.4670540325739],[90.7004476921984,23.46673405028],[90.7006163867746,23.4664628814733],[90.7007014336716,23.4663439475714],[90.7009278022408,23.4661013104825],[90.7011404620304,23.4659281722078],[90.7011916835471,23.4658935054537],[90.7014981223444,23.4657487362361],[90.7019240565755,23.4651721258315],[90.7024246407538,23.464594613602],[90.7030579958893,23.4640136787562],[90.703184752375,23.4639137496386],[90.7034567052574,23.4636138856795],[90.7036319729403,23.4634301866039],[90.7038850287591,23.4631445204743],[90.7040814493588,23.4629110465877],[90.704371127969,23.4623773845864],[90.7044116038715,23.4621632439658],[90.7046121684877,23.4617886175688],[90.7047042013756,23.4616035996731],[90.7047277254532,23.4614239720331],[90.7048327202819,23.4610294539016],[90.7049264467963,23.4609330598436],[90.7049915747313,23.4608672797404],[90.7051844272291,23.4603086498281],[90.7052825473754,23.4602331234091],[90.7054147338866,23.460119619202],[90.7056041160028,23.4594842280236],[90.7056106760659,23.4594520199899],[90.705969205686,23.4589801422238],[90.7061680528021,23.4588595613332],[90.7065841603532,23.4586290415317],[90.7069215488,23.4580951587957],[90.7071738974686,23.4577948128307],[90.7072708930513,23.4577384844034],[90.7073933087475,23.4573997743282],[90.7076875635389,23.4570405261416],[90.7077556243727,23.4569515857731],[90.7082085629099,23.4564002401176],[90.7084958113555,23.4559902143101],[90.7086214803288,23.4558033478094],[90.7087187031165,23.455675321826],[90.7091179705097,23.4551586538827],[90.7103910402986,23.4381643655521],[90.7061830626819,23.4375110972139],[90.6642456991916,23.4614858742869],[90.6563600991367,23.4613419886119],[90.6661781446709,23.4747611481773],[90.6585039177825,23.4957763695863],[90.6877561987789,23.4924739469489]]]]}
				},{
					"type": "Feature",
					"properties": {"gid": "4137","UNINAME": "Farajikandi","Union_Code_st": "13","un_uid": "20137913","divid": "20","Dis_Code": "13","Upa_Code": "79","Union_Code": "13","ruo": ""},
					"geometry": 
						{"type":"MultiPolygon","coordinates":[[[[90.6720571164119,23.355478840097],[90.6671655115496,23.3422747646061],[90.6685182390146,23.335988440796],[90.6646504054299,23.3303927590756],[90.6601636436986,23.3317271210226],[90.6374087921609,23.3376491774277],[90.6265223747204,23.3555751275432],[90.6260675346862,23.3733110223984],[90.6380856748034,23.380880986284],[90.6720571164119,23.355478840097]]],[[[90.6378386082929,23.3203655034209],[90.6375789496464,23.3189856754679],[90.6337017764096,23.3154266792611],[90.6285133985494,23.3271529210291],[90.6297756687295,23.3346484351696],[90.6378386082929,23.3203655034209]]]]}
				},{
					"type": "Feature",
					"properties": {"gid": "4139","UNINAME": "Durgapur","Union_Code_st": "15","un_uid": "20137915","divid": "20","Dis_Code": "13","Upa_Code": "79","Union_Code": "15","ruo": ""},
					"geometry": 
						{"type":"MultiPolygon","coordinates":[[[[90.7103910402986,23.4381643655521],[90.7281239375567,23.4270325014556],[90.7300393748081,23.4207837743711],[90.7217820789098,23.4177589863457],[90.6962574861017,23.4250354124878],[90.694819844468,23.4084066145336],[90.6926688422907,23.4071775689616],[90.6777185801103,23.4110373847182],[90.6480122539349,23.4182348427832],[90.6441089334497,23.4272508858636],[90.6604670302519,23.4354107071923],[90.6439448965196,23.4487029202712],[90.6563600991367,23.4613419886119],[90.6642456991916,23.4614858742869],[90.7061830626819,23.4375110972139],[90.7103910402986,23.4381643655521]]]]}
				},{
					"type": "Feature",
					"properties": {"gid": "4140","UNINAME": "Purba Fatehpur","Union_Code_st": "17","un_uid": "20137917","divid": "20","Dis_Code": "13","Upa_Code": "79","Union_Code": "17","ruo": ""},
					"geometry": 
						{"type":"MultiPolygon","coordinates":[[[[90.6926688422907,23.4071775689616],[90.7182553744853,23.3705698484768],[90.7044213840578,23.3692643025843],[90.7037032310952,23.3540351212282],[90.6833980924124,23.3659279532034],[90.6711697204466,23.3855738558035],[90.6777185801103,23.4110373847182],[90.6926688422907,23.4071775689616]]]]}
				},{
					"type": "Feature",
					"properties": {"gid": "4141","UNINAME": "Eklaspur","Union_Code_st": "21","un_uid": "20137921","divid": "20","Dis_Code": "13","Upa_Code": "79","Union_Code": "21","ruo": ""},
					"geometry": 
						{"type":"MultiPolygon","coordinates":[[[[90.6151437335039,23.3823560356844],[90.6112117610694,23.3475050418855],[90.6066312606251,23.3408397289082],[90.590675461565,23.335944534787],[90.5760634593831,23.3580023123686],[90.546814827201,23.3674161124219],[90.538690684186,23.3793478523865],[90.5414669843811,23.3982478634526],[90.5734610969921,23.3938443360335],[90.5838762766805,23.3788164932937],[90.6151437335039,23.3823560356844]]]]}
				},{
					"type": "Feature",
					"properties": {"gid": "4142","UNINAME": "Eklaspur","Union_Code_st": "21","un_uid": "20137921","divid": "20","Dis_Code": "13","Upa_Code": "79","Union_Code": "21","ruo": ""},
					"geometry": 
						{"type":"MultiPolygon","coordinates":[[[[90.6066312606251,23.3408397289082],[90.6011486221328,23.3352102945432],[90.5917857970229,23.3340315991864],[90.590675461565,23.335944534787],[90.6066312606251,23.3408397289082]]]]}
				},{
					"type": "Feature",
					"properties": {"gid": "4143","UNINAME": "Islamabad","Union_Code_st": "25","un_uid": "20137925","divid": "20","Dis_Code": "13","Upa_Code": "79","Union_Code": "25","ruo": ""},
					"geometry": 
						{"type":"MultiPolygon","coordinates":[[[[90.7518796429461,23.4158460870301],[90.745562588382,23.4020193391173],[90.7334044273452,23.4112070729387],[90.7136836460206,23.3908977515699],[90.694819844468,23.4084066145336],[90.6962574861017,23.4250354124878],[90.7217820789098,23.4177589863457],[90.7300393748081,23.4207837743711],[90.7518796429461,23.4158460870301]]]]}
				},{
					"type": "Feature",
					"properties": {"gid": "4144","UNINAME": "Jahirabad","Union_Code_st": "30","un_uid": "20137930","divid": "20","Dis_Code": "13","Upa_Code": "79","Union_Code": "30","ruo": ""},
					"geometry": 
						{"type":"MultiPolygon","coordinates":[[[[90.6380856748034,23.380880986284],[90.6260675346862,23.3733110223984],[90.6265223747204,23.3555751275432],[90.6278241288985,23.3491973114972],[90.6324462472465,23.3416504799264],[90.632668627169,23.3409698672489],[90.6296140001146,23.3369259051796],[90.6112117610694,23.3475050418855],[90.6151437335039,23.3823560356844],[90.6329171585002,23.3915464576174],[90.6380856748034,23.380880986284]]]]}
				},{
					"type": "Feature",
					"properties": {"gid": "4145","UNINAME": "Jahirabad","Union_Code_st": "30","un_uid": "20137930","divid": "20","Dis_Code": "13","Upa_Code": "79","Union_Code": "30","ruo": ""},
					"geometry": 
						{"type":"MultiPolygon","coordinates":[[[[90.6296140001146,23.3369259051796],[90.6297756687295,23.3346484351696],[90.6285133985494,23.3271529210291],[90.6337017764096,23.3154266792611],[90.6240192684432,23.3138746259255],[90.6194463578589,23.323370420721],[90.6011486221328,23.3352102945432],[90.6066312606251,23.3408397289082],[90.6112117610694,23.3475050418855],[90.6296140001146,23.3369259051796]]]]}
				},{
					"type": "Feature",
					"properties": {"gid": "4146","UNINAME": "Kalakanda","Union_Code_st": "32","un_uid": "20137932","divid": "20","Dis_Code": "13","Upa_Code": "79","Union_Code": "32","ruo": ""},
					"geometry": 
						{"type":"MultiPolygon","coordinates":[[[[90.619206413987,23.4183205206403],[90.6257947835646,23.4097496194427],[90.6252404832043,23.4097437805685],[90.624985887579,23.4097171364962],[90.6247214386584,23.4096764178359],[90.6232109263004,23.4095017958939],[90.6225521211662,23.4108102093485],[90.6224896916412,23.411325885525],[90.6224809913865,23.4114275378619],[90.6215431480905,23.4115407925954],[90.6213462688529,23.411429796179],[90.6211095553963,23.4113031506601],[90.6194783949461,23.4107072588985],[90.6190024309334,23.4109592376914],[90.6183649610795,23.4108138515072],[90.6178058715979,23.4106856536434],[90.6175894903195,23.4105894076313],[90.6172947278541,23.4104754056044],[90.6168909962693,23.4102111002399],[90.6166636132781,23.4099844868773],[90.6162202421422,23.40895312187],[90.6160980424905,23.4085872151155],[90.6160349920011,23.4081809924918],[90.6159602519214,23.4077601377643],[90.6159688289836,23.4076308235209],[90.6159854393064,23.4073868752993],[90.6160416729757,23.407245517776],[90.6162880885943,23.4066958099803],[90.616363498183,23.4064685661126],[90.6165818313547,23.4059313885587],[90.6158580363516,23.4052347731087],[90.6154260342641,23.4050699345387],[90.615131546753,23.4050123813899],[90.6144161426117,23.4048057498881],[90.6138381851324,23.4046917249996],[90.6137207123868,23.4046854118287],[90.6135052234309,23.4046473043742],[90.6126590442118,23.4048657150201],[90.6124739325052,23.4049155558962],[90.6116278249813,23.4051503325001],[90.611064649215,23.405324721436],[90.6108991798768,23.4053897263469],[90.6102987949226,23.4057206366699],[90.6098938565848,23.4061213500804],[90.6096141469829,23.4063522108262],[90.6094120142775,23.4065596222779],[90.6090130161848,23.4066554565521],[90.6081833196643,23.406603362428],[90.6076417595397,23.4062893244295],[90.6070535390732,23.4052663982655],[90.6072247575779,23.4049862837167],[90.6072619038095,23.4048156470302],[90.6085629641414,23.4044148407196],[90.608776706642,23.4043389239073],[90.6089111221686,23.4041712951981],[90.6091132832955,23.4033022384984],[90.6091220011495,23.4032022801987],[90.6091075650919,23.4028545772227],[90.6091815007867,23.4025703233133],[90.6092767623659,23.4024017178047],[90.6093418480691,23.4021886308894],[90.609328622676,23.4019718974503],[90.609344434131,23.4016844827672],[90.6096599863439,23.4012683121958],[90.6098810774033,23.4010619555435],[90.6101713730181,23.4008745229487],[90.6113759230675,23.4005130240931],[90.6123771413385,23.4002296553421],[90.6133918599183,23.3995583854371],[90.6137678850572,23.3992610882622],[90.6138354632723,23.3991925130561],[90.6136374571515,23.3984334140176],[90.6132937102336,23.3983015306165],[90.6123621853635,23.3980415403858],[90.6109479738077,23.3986940419348],[90.6104723054119,23.3988714736497],[90.6101915422246,23.3990024151159],[90.6092595272549,23.3993035655346],[90.6088424592632,23.3994559239729],[90.6085028301486,23.3995554772285],[90.6077561870997,23.3998666233849],[90.6074182377842,23.4000666567091],[90.6065947649627,23.4004317276715],[90.6064780415572,23.4004547623934],[90.6061475186162,23.400540161643],[90.6053204787577,23.4006602274327],[90.605108032611,23.4007513771736],[90.6036045426405,23.4019636225577],[90.6032220649944,23.402463592139],[90.6031081612993,23.4027045277413],[90.6020741536809,23.4033204808212],[90.6011605411422,23.4035086037546],[90.6008599890523,23.4035961348686],[90.5994523308319,23.4039639780952],[90.5991413094741,23.4040363033787],[90.5979281364189,23.4043994354938],[90.5973595208291,23.4048645367551],[90.5972250214534,23.4050169133775],[90.5969454257737,23.4052776722546],[90.5966670574203,23.4055395550451],[90.5964640356423,23.4056893698995],[90.5963867239368,23.4057726530573],[90.5958988498543,23.4056932196296],[90.5958202160706,23.4056178704162],[90.595594488582,23.405478159139],[90.5950537939605,23.4050765691066],[90.5946082722774,23.4053029537664],[90.5942323326586,23.4056329489122],[90.5941076813005,23.405799963635],[90.5938385469015,23.4060764845484],[90.5936589641815,23.4065451747152],[90.593611630357,23.4066300362802],[90.5935283227843,23.4070153724311],[90.5932984108506,23.407309244354],[90.5929227188668,23.4076968190666],[90.5927007899371,23.4078608144785],[90.5924403816378,23.4080379400043],[90.5923434843335,23.4081196018178],[90.5921903951984,23.4083578555055],[90.5921816744094,23.4084600712055],[90.5922258732707,23.4089075878998],[90.5919215684731,23.4095308694839],[90.5914307142981,23.4101599375775],[90.5912390789228,23.410397207141],[90.5910752678627,23.4105638031031],[90.5908342009517,23.4108277927728],[90.5908596965146,23.4113346577199],[90.590821539888,23.4114206128318],[90.5893155967179,23.4118593059447],[90.5891400033837,23.4118526290405],[90.5869847202946,23.4116704890432],[90.5866922658366,23.4116586029012],[90.5866116362233,23.4114076830176],[90.5864702261933,23.4109678685653],[90.5864003247808,23.4107914282462],[90.5863959626382,23.4103567447465],[90.5864125578147,23.4100969916249],[90.586456149398,23.4095780108628],[90.5865107142169,23.409189398857],[90.586518767999,23.4090736368248],[90.5865943544142,23.4088746331225],[90.5867284220215,23.408620648909],[90.5867364755913,23.4085048868617],[90.586694083569,23.4081855133168],[90.5866341670587,23.408053634624],[90.5856117289805,23.4071553257567],[90.5848686363651,23.4069046276487],[90.5845169424131,23.4067727107208],[90.5843894958065,23.4067240718855],[90.5840657620209,23.4065514020713],[90.5839487763641,23.4065168374155],[90.5831172119356,23.4061761340783],[90.5821884335335,23.4058448211493],[90.5820028046805,23.4057794606915],[90.5799474973507,23.4057752459228],[90.5799308923408,23.4060355632795],[90.5799745751525,23.4065147007571],[90.5800089550699,23.406964516325],[90.5798787124198,23.4075374492851],[90.5794959327641,23.4082733434986],[90.5792903425377,23.4091034237148],[90.5792523042828,23.4092181675381],[90.578976392559,23.4099141460484],[90.5787757701518,23.4103405568433],[90.5786472673957,23.4111748669257],[90.5785045729898,23.4115592864271],[90.5783897098241,23.4118730345533],[90.5783357982632,23.4122768843108],[90.5781750780997,23.4128775912139],[90.5781581075233,23.4131954932291],[90.5781487615373,23.4132971460323],[90.5780079147548,23.4138260818827],[90.5779991803419,23.4139277324089],[90.5781833460982,23.4149212157427],[90.5782057221815,23.4152841357058],[90.5781585830079,23.415557550185],[90.5781125420148,23.4158021687602],[90.5781130448613,23.4159178987226],[90.5780956986279,23.4161494265524],[90.5781167050491,23.4163379070001],[90.5781276098191,23.4164541630068],[90.5781292322125,23.4166867497189],[90.5780655442245,23.4172345944343],[90.5780562617298,23.4173509251304],[90.5779807830104,23.4175787161888],[90.5777443084873,23.418627387078],[90.5777366855236,23.4188442006654],[90.5777132280163,23.4196408607864],[90.5779479760597,23.4197433042051],[90.578309631852,23.4197679347889],[90.5785636839674,23.4198076412877],[90.578670828267,23.4198275680344],[90.5794440812999,23.4201064096072],[90.5795709937862,23.4201702969141],[90.5798447558727,23.4202404136099],[90.5807830311408,23.4204830694617],[90.5810469374007,23.4205374134131],[90.5812912061517,23.4205777163713],[90.5823162872024,23.4206647900264],[90.5828643638073,23.4207903329938],[90.5832065905842,23.4208477682684],[90.5834411937735,23.420915766623],[90.5845432502099,23.420977698091],[90.5846705195823,23.4209828672137],[90.5855699716226,23.4212973365312],[90.5858545216898,23.421454342011],[90.5859525466845,23.4214867179019],[90.5872468834985,23.4222823810495],[90.5878428254693,23.422438776306],[90.5881563330095,23.4226408320433],[90.5883720346076,23.4227218785751],[90.5885968529151,23.4227893413864],[90.5902537450429,23.4238032199465],[90.5907725645902,23.424086353122],[90.591341341101,23.4244596224212],[90.5914290347958,23.4245067120624],[90.5916747883133,23.4246034473574],[90.5918311435158,23.4246824556417],[90.5921352922091,23.4248410687334],[90.592262892254,23.4249196210477],[90.5928812020449,23.4254236708788],[90.5931662855514,23.425696392107],[90.5934128913999,23.4259833725843],[90.5937184059212,23.4264468308663],[90.5944647440997,23.4269848244966],[90.5949054846471,23.4271779137044],[90.5952289312923,23.4274087086142],[90.5957315283032,23.4280255317535],[90.5959875763644,23.4283694907735],[90.5963435429037,23.4288931571124],[90.5964320455008,23.4289831460389],[90.5974795751201,23.4294206144047],[90.5989929183545,23.429500627391],[90.5991100526461,23.4295628423184],[90.5993837138858,23.4296041328829],[90.5996288095072,23.4296873088378],[90.6002540368779,23.429815316187],[90.6005770426261,23.429945048195],[90.6007829134378,23.4300125659657],[90.6012620882063,23.4301772618189],[90.6013779908495,23.4299668055655],[90.6015522738088,23.4298137077127],[90.6017465589551,23.4296193209651],[90.6022205964292,23.4291901346407],[90.6023661284881,23.4290382758566],[90.6026861349173,23.4287762223628],[90.6030345099624,23.4284293772558],[90.6032293825132,23.428365395825],[90.6042961156761,23.4287169335244],[90.6044738765337,23.4289262554316],[90.6046901292507,23.4291241372224],[90.6047891817344,23.4292456948482],[90.6054479288098,23.4298822043963],[90.6057331141846,23.4301695796458],[90.6060884647645,23.4305487024433],[90.6062656216925,23.4307585890595],[90.6070332953865,23.4315312878346],[90.6073563090393,23.4316604410345],[90.6080588197022,23.4315600411236],[90.6082400865954,23.4310625379551],[90.6084922283336,23.4308120279191],[90.6085989152242,23.4307291889719],[90.6089114182898,23.4307008726531],[90.6095376041409,23.4309016647839],[90.6098503663077,23.4309297997882],[90.6110726591382,23.4310418815097],[90.6112189095281,23.4310480836133],[90.6123395237183,23.4307354532319],[90.6124654578347,23.4305814039137],[90.6127153055526,23.4301005630506],[90.6127147722485,23.4299848340285],[90.6130821048483,23.4295086124359],[90.613110465852,23.4294232552394],[90.6132257266954,23.4292105348513],[90.6133509943329,23.4289125292251],[90.6133058387873,23.428274774021],[90.6133321815374,23.4278845719583],[90.6134277960716,23.4276572504708],[90.6138944682805,23.4263050318353],[90.6140760375477,23.4258792177283],[90.6141146643568,23.4257650283158],[90.6142002114159,23.4254779044523],[90.6145300682831,23.4241770305862],[90.6148440517409,23.4232815598249],[90.6151048832712,23.4229316456659],[90.6157708303788,23.4220805145047],[90.616195520345,23.4215792196809],[90.6163011857138,23.4214105691715],[90.6165423003729,23.421031938789],[90.6167833987393,23.42078202377],[90.6170343014734,23.4204039185341],[90.6170919590817,23.4203048958457],[90.6178630808003,23.4191857472995],[90.6182407045531,23.4188280269545],[90.619206413987,23.4183205206403]]]]}
				},{
					"type": "Feature",
					"properties": {"gid": "4147","UNINAME": "Mohanpur","Union_Code_st": "38","un_uid": "20137938","divid": "20","Dis_Code": "13","Upa_Code": "79","Union_Code": "38","ruo": ""},
					"geometry": 
						{"type":"MultiPolygon","coordinates":[[[[90.5967280231962,23.4293625174527],[90.5964320455008,23.4289831460389],[90.5963435429037,23.4288931571124],[90.5959875763644,23.4283694907735],[90.5957315283032,23.4280255317535],[90.5952289312923,23.4274087086142],[90.5949054846471,23.4271779137044],[90.5944647440997,23.4269848244966],[90.5937184059212,23.4264468308663],[90.5934128913999,23.4259833725843],[90.5931662855514,23.425696392107],[90.5928812020449,23.4254236708788],[90.592262892254,23.4249196210477],[90.5921352922091,23.4248410687334],[90.5918311435158,23.4246824556417],[90.5916747883133,23.4246034473574],[90.5914290347958,23.4245067120624],[90.591341341101,23.4244596224212],[90.5907725645902,23.424086353122],[90.5902537450429,23.4238032199465],[90.5885968529151,23.4227893413864],[90.5883720346076,23.4227218785751],[90.5881563330095,23.4226408320433],[90.5878428254693,23.422438776306],[90.5872468834985,23.4222823810495],[90.5859525466845,23.4214867179019],[90.5858545216898,23.421454342011],[90.5855699716226,23.4212973365312],[90.5846705195823,23.4209828672137],[90.5845432502099,23.420977698091],[90.5834411937735,23.420915766623],[90.5832065905842,23.4208477682684],[90.5828643638073,23.4207903329938],[90.5823162872024,23.4206647900264],[90.5812912061517,23.4205777163713],[90.5810469374007,23.4205374134131],[90.5807830311408,23.4204830694617],[90.5798447558727,23.4202404136099],[90.5795709937862,23.4201702969141],[90.5794440812999,23.4201064096072],[90.578670828267,23.4198275680344],[90.5785636839674,23.4198076412877],[90.578309631852,23.4197679347889],[90.5779479760597,23.4197433042051],[90.5777132280163,23.4196408607864],[90.5777366855236,23.4188442006654],[90.5777443084873,23.418627387078],[90.5779807830104,23.4175787161888],[90.5780562617298,23.4173509251304],[90.5780655442245,23.4172345944343],[90.5781292322125,23.4166867497189],[90.5781276098191,23.4164541630068],[90.5781167050491,23.4163379070001],[90.5780956986279,23.4161494265524],[90.5781130448613,23.4159178987226],[90.5781125420148,23.4158021687602],[90.5781585830079,23.415557550185],[90.5782057221815,23.4152841357058],[90.5781833460982,23.4149212157427],[90.5779991803419,23.4139277324089],[90.5780079147548,23.4138260818827],[90.5781487615373,23.4132971460323],[90.5781581075233,23.4131954932291],[90.5781750780997,23.4128775912139],[90.5783357982632,23.4122768843108],[90.5783897098241,23.4118730345533],[90.5785045729898,23.4115592864271],[90.5786472673957,23.4111748669257],[90.5787757701518,23.4103405568433],[90.578976392559,23.4099141460484],[90.5792523042828,23.4092181675381],[90.5792903425377,23.4091034237148],[90.5794959327641,23.4082733434986],[90.5798787124198,23.4075374492851],[90.5800089550699,23.406964516325],[90.5799745751525,23.4065147007571],[90.5799308923408,23.4060355632795],[90.5799474973507,23.4057752459228],[90.5820028046805,23.4057794606915],[90.5821884335335,23.4058448211493],[90.5831172119356,23.4061761340783],[90.5839487763641,23.4065168374155],[90.5840657620209,23.4065514020713],[90.5843894958065,23.4067240718855],[90.5845169424131,23.4067727107208],[90.5848686363651,23.4069046276487],[90.5856117289805,23.4071553257567],[90.5866341670587,23.408053634624],[90.586694083569,23.4081855133168],[90.5867364755913,23.4085048868617],[90.5867284220215,23.408620648909],[90.5865943544142,23.4088746331225],[90.586518767999,23.4090736368248],[90.5865107142169,23.409189398857],[90.586456149398,23.4095780108628],[90.5864125578147,23.4100969916249],[90.5863959626382,23.4103567447465],[90.5864003247808,23.4107914282462],[90.5864702261933,23.4109678685653],[90.5866116362233,23.4114076830176],[90.5866922658366,23.4116586029012],[90.5869847202946,23.4116704890432],[90.5891400033837,23.4118526290405],[90.5893155967179,23.4118593059447],[90.590821539888,23.4114206128318],[90.5908596965146,23.4113346577199],[90.5908342009517,23.4108277927728],[90.5910752678627,23.4105638031031],[90.5912390789228,23.410397207141],[90.5914307142981,23.4101599375775],[90.5919215684731,23.4095308694839],[90.5922258732707,23.4089075878998],[90.5921816744094,23.4084600712055],[90.5921903951984,23.4083578555055],[90.5923434843335,23.4081196018178],[90.5924403816378,23.4080379400043],[90.5927007899371,23.4078608144785],[90.5929227188668,23.4076968190666],[90.5932984108506,23.407309244354],[90.5935283227843,23.4070153724311],[90.593611630357,23.4066300362802],[90.5936589641815,23.4065451747152],[90.5938385469015,23.4060764845484],[90.5941076813005,23.405799963635],[90.5942323326586,23.4056329489122],[90.5946082722774,23.4053029537664],[90.5950537939605,23.4050765691066],[90.595594488582,23.405478159139],[90.5958202160706,23.4056178704162],[90.5958988498543,23.4056932196296],[90.5963867239368,23.4057726530573],[90.5964640356423,23.4056893698995],[90.5966670574203,23.4055395550451],[90.5969454257737,23.4052776722546],[90.5972250214534,23.4050169133775],[90.5973595208291,23.4048645367551],[90.5979281364189,23.4043994354938],[90.5991413094741,23.4040363033787],[90.5994523308319,23.4039639780952],[90.6008599890523,23.4035961348686],[90.6011605411422,23.4035086037546],[90.6020741536809,23.4033204808212],[90.6031081612993,23.4027045277413],[90.6032220649944,23.402463592139],[90.6036045426405,23.4019636225577],[90.605108032611,23.4007513771736],[90.6053204787577,23.4006602274327],[90.6061475186162,23.400540161643],[90.6064780415572,23.4004547623934],[90.6065947649627,23.4004317276715],[90.6074182377842,23.4000666567091],[90.6077561870997,23.3998666233849],[90.6085028301486,23.3995554772285],[90.6088424592632,23.3994559239729],[90.6092595272549,23.3993035655346],[90.6101915422246,23.3990024151159],[90.6104723054119,23.3988714736497],[90.6109479738077,23.3986940419348],[90.6123621853635,23.3980415403858],[90.6132937102336,23.3983015306165],[90.6136374571515,23.3984334140176],[90.6138354632723,23.3991925130561],[90.6137678850572,23.3992610882622],[90.6133918599183,23.3995583854371],[90.6123771413385,23.4002296553421],[90.6113759230675,23.4005130240931],[90.6101713730181,23.4008745229487],[90.6098810774033,23.4010619555435],[90.6096599863439,23.4012683121958],[90.609344434131,23.4016844827672],[90.609328622676,23.4019718974503],[90.6093418480691,23.4021886308894],[90.6092767623659,23.4024017178047],[90.6091815007867,23.4025703233133],[90.6091075650919,23.4028545772227],[90.6091220011495,23.4032022801987],[90.6091132832955,23.4033022384984],[90.6089111221686,23.4041712951981],[90.608776706642,23.4043389239073],[90.6085629641414,23.4044148407196],[90.6072619038095,23.4048156470302],[90.6072247575779,23.4049862837167],[90.6070535390732,23.4052663982655],[90.6076417595397,23.4062893244295],[90.6081833196643,23.406603362428],[90.6090130161848,23.4066554565521],[90.6094120142775,23.4065596222779],[90.6096141469829,23.4063522108262],[90.6098938565848,23.4061213500804],[90.6102987949226,23.4057206366699],[90.6108991798768,23.4053897263469],[90.611064649215,23.405324721436],[90.6116278249813,23.4051503325001],[90.6124739325052,23.4049155558962],[90.6126590442118,23.4048657150201],[90.6135052234309,23.4046473043742],[90.6137207123868,23.4046854118287],[90.6138381851324,23.4046917249996],[90.6144161426117,23.4048057498881],[90.615131546753,23.4050123813899],[90.6154260342641,23.4050699345387],[90.6158580363516,23.4052347731087],[90.6165818313547,23.4059313885587],[90.616363498183,23.4064685661126],[90.6162880885943,23.4066958099803],[90.6160416729757,23.407245517776],[90.6159854393064,23.4073868752993],[90.6159688289836,23.4076308235209],[90.6159602519214,23.4077601377643],[90.6160349920011,23.4081809924918],[90.6160980424905,23.4085872151155],[90.6162202421422,23.40895312187],[90.6166636132781,23.4099844868773],[90.6168909962693,23.4102111002399],[90.6172947278541,23.4104754056044],[90.6175894903195,23.4105894076313],[90.6178058715979,23.4106856536434],[90.6183649610795,23.4108138515072],[90.6190024309334,23.4109592376914],[90.6194783949461,23.4107072588985],[90.6211095553963,23.4113031506601],[90.6213462688529,23.411429796179],[90.6215431480905,23.4115407925954],[90.6224809913865,23.4114275378619],[90.6224896916412,23.411325885525],[90.6225521211662,23.4108102093485],[90.6232109263004,23.4095017958939],[90.6247214386584,23.4096764178359],[90.624985887579,23.4097171364962],[90.6252404832043,23.4097437805685],[90.6256499469321,23.4095326963522],[90.6253205865356,23.4090863324718],[90.6251695991406,23.4087177257392],[90.6251630236626,23.408229422651],[90.625219925819,23.4081021728948],[90.6257778731343,23.4073378069673],[90.6258333504459,23.4070378126298],[90.625974559729,23.4066279535904],[90.6263111445701,23.406140533717],[90.6270735715502,23.405416555237],[90.6275269482712,23.404403074831],[90.6275251847264,23.4042884797293],[90.627601199612,23.4035452361712],[90.6277673525796,23.4029788969569],[90.6279227651252,23.4023403392113],[90.6280426830258,23.4019576618548],[90.6280906073782,23.401873352383],[90.6283595436581,23.4015719345991],[90.6284639601694,23.4014044100865],[90.6287403023717,23.4009877951276],[90.6291761934805,23.4001629375372],[90.6292700017218,23.3999514208435],[90.6296621847162,23.3989393095838],[90.6300311088486,23.3981835935984],[90.6301919465426,23.3979193036724],[90.6304748061471,23.3973316028673],[90.6305863554301,23.3969924270929],[90.6308687361635,23.3964335192006],[90.6310282817668,23.3960264042318],[90.6318825504986,23.3941797203406],[90.6319385610351,23.3939960174158],[90.6321190396511,23.3937480178838],[90.6323905997332,23.3931027758861],[90.6326200203958,23.3923425371017],[90.6326845274536,23.3921452504812],[90.6328503907723,23.3916539911068],[90.6329171585002,23.3915464576174],[90.6151437335039,23.3823560356844],[90.5838762766805,23.3788164932937],[90.5734610969921,23.3938443360335],[90.5414669843811,23.3982478634526],[90.5522446083761,23.4149467459591],[90.574260170111,23.442943317622],[90.5969885979085,23.4448802342013],[90.5967280231962,23.4293625174527]]]]}
				},{
					"type": "Feature",
					"properties": {"gid": "4148","UNINAME": "Sadullapur","Union_Code_st": "64","un_uid": "20137964","divid": "20","Dis_Code": "13","Upa_Code": "79","Union_Code": "64","ruo": ""},
					"geometry": 
						{"type":"MultiPolygon","coordinates":[[[[90.6585039177825,23.4957763695863],[90.6661781446709,23.4747611481773],[90.6563600991367,23.4613419886119],[90.6439448965196,23.4487029202712],[90.6250379559987,23.4737341027566],[90.6211218996091,23.492062222081],[90.6411444440315,23.5036952355225],[90.6585039177825,23.4957763695863]]]]}
				},{
					"type": "Feature",
					"properties": {"gid": "4149","UNINAME": "Satnal","Union_Code_st": "73","un_uid": "20137973","divid": "20","Dis_Code": "13","Upa_Code": "79","Union_Code": "73","ruo": ""},
					"geometry": 
						{"type":"MultiPolygon","coordinates":[[[[90.6211218996091,23.492062222081],[90.6250379559987,23.4737341027566],[90.6055110047081,23.471104749333],[90.6024392531077,23.4561010017037],[90.6133509943329,23.4289125292251],[90.6132257266954,23.4292105348513],[90.613110465852,23.4294232552394],[90.6130821048483,23.4295086124359],[90.6127147722485,23.4299848340285],[90.6127153055526,23.4301005630506],[90.6124654578347,23.4305814039137],[90.6123395237183,23.4307354532319],[90.6112189095281,23.4310480836133],[90.6110726591382,23.4310418815097],[90.6098503663077,23.4309297997882],[90.6095376041409,23.4309016647839],[90.6089114182898,23.4307008726531],[90.6085989152242,23.4307291889719],[90.6084922283336,23.4308120279191],[90.6082400865954,23.4310625379551],[90.6080588197022,23.4315600411236],[90.6073563090393,23.4316604410345],[90.6070332953865,23.4315312878346],[90.6062656216925,23.4307585890595],[90.6060884647645,23.4305487024433],[90.6057331141846,23.4301695796458],[90.6054479288098,23.4298822043963],[90.6047891817344,23.4292456948482],[90.6046901292507,23.4291241372224],[90.6044738765337,23.4289262554316],[90.6042961156761,23.4287169335244],[90.6032293825132,23.428365395825],[90.6030345099624,23.4284293772558],[90.6026861349173,23.4287762223628],[90.6023661284881,23.4290382758566],[90.6022205964292,23.4291901346407],[90.6017465589551,23.4296193209651],[90.6015522738088,23.4298137077127],[90.6013779908495,23.4299668055655],[90.6012620882063,23.4301772618189],[90.6007829134378,23.4300125659657],[90.6005770426261,23.429945048195],[90.6002540368779,23.429815316187],[90.5996288095072,23.4296873088378],[90.5993837138858,23.4296041328829],[90.5991100526461,23.4295628423184],[90.5989929183545,23.429500627391],[90.5974795751201,23.4294206144047],[90.5967280231962,23.4293625174527],[90.5969885979085,23.4448802342013],[90.574260170111,23.442943317622],[90.5775614784447,23.4705880783223],[90.5842859750456,23.4801619160672],[90.5758334206962,23.4936141877387],[90.576953044012,23.4960268417722],[90.6014135919021,23.4980694351861],[90.6211218996091,23.492062222081]]]]}
				},{
					"type": "Feature",
					"properties": {"gid": "4150","UNINAME": "Sultanabad","Union_Code_st": "90","un_uid": "20137990","divid": "20","Dis_Code": "13","Upa_Code": "79","Union_Code": "90","ruo": ""},
					"geometry": 
						{"type":"MultiPolygon","coordinates":[[[[90.745562588382,23.4020193391173],[90.753595581358,23.3871098812436],[90.7344715395573,23.3832039645901],[90.7284357896609,23.3665100508604],[90.7362177218537,23.3610783518455],[90.7182553744853,23.3705698484768],[90.6926688422907,23.4071775689616],[90.694819844468,23.4084066145336],[90.7136836460206,23.3908977515699],[90.7334044273452,23.4112070729387],[90.745562588382,23.4020193391173]]]]}
				},{
					"type": "Feature",
					"properties": {"gid": "4151","UNINAME": "Paschim Fatehpur","Union_Code_st": "94","un_uid": "20137994","divid": "20","Dis_Code": "13","Upa_Code": "79","Union_Code": "94","ruo": ""},
					"geometry": 
						{"type":"MultiPolygon","coordinates":[[[[90.6777185801103,23.4110373847182],[90.6711697204466,23.3855738558035],[90.6833980924124,23.3659279532034],[90.7037032310952,23.3540351212282],[90.6720571164119,23.355478840097],[90.6380856748034,23.380880986284],[90.6329171585002,23.3915464576174],[90.6328503907723,23.3916539911068],[90.6331469827305,23.3917730380411],[90.6346347738769,23.3926104334774],[90.6350127946339,23.3928742337949],[90.6359088020909,23.3935085254968],[90.6362469915708,23.3937555484313],[90.6370803320819,23.3942009663326],[90.6374664439242,23.3943642389177],[90.6444183172834,23.397528223465],[90.6447942457026,23.3976057091494],[90.6450123936353,23.3976883613774],[90.6458758955489,23.398035941],[90.645864796933,23.3985220573656],[90.6457990067502,23.3987035471034],[90.6452376130216,23.3998614825082],[90.6451523142254,23.4000566015029],[90.6450394289645,23.4003653071858],[90.644936058926,23.4006180838928],[90.6442240519706,23.4022553684068],[90.6441386846811,23.4024369381261],[90.6433117984036,23.4035959606],[90.6428054867153,23.4045154240114],[90.6444806967945,23.4066244260085],[90.6441789425137,23.406837937714],[90.6441764751296,23.4073392605785],[90.6442545784995,23.4079311424005],[90.6443873268334,23.4083122249246],[90.6448126385865,23.4091070380686],[90.6452162095651,23.4098325011085],[90.6454685446026,23.4102751881998],[90.6462796971919,23.4105326532384],[90.6462633505813,23.4108195076288],[90.646226859325,23.4109890208211],[90.6460933071643,23.4113260394784],[90.6457770508422,23.4119562454142],[90.6458091600512,23.4121441048019],[90.6460545278777,23.4127883605583],[90.6461603924299,23.4134258538134],[90.6461933966699,23.4136718570615],[90.6462265353845,23.4139455222296],[90.6462628732314,23.4152556707162],[90.6463483668116,23.4166102142953],[90.6464703359626,23.4176654002192],[90.6464466210468,23.4181984244689],[90.6465547907472,23.4181759597304],[90.647007593698,23.4181989247477],[90.6471646387393,23.4181632727227],[90.6478241193465,23.4181673137245],[90.6480122539349,23.4182348427832],[90.6777185801103,23.4110373847182]]]]}
				},{
					"type": "Feature",
					"properties": {"gid": "4152","UNINAME": "Chengarchar Paurashava","Union_Code_st": "99","un_uid": "20137999","divid": "20","Dis_Code": "13","Upa_Code": "79","Union_Code": "99","ruo": "2"},
					"geometry": 
						{"type":"MultiPolygon","coordinates":[[[[90.6439448965196,23.4487029202712],[90.6604670302519,23.4354107071923],[90.6441089334497,23.4272508858636],[90.6480122539349,23.4182348427832],[90.6478241193465,23.4181673137245],[90.6471646387393,23.4181632727227],[90.647007593698,23.4181989247477],[90.6465547907472,23.4181759597304],[90.6464466210468,23.4181984244689],[90.6464782638519,23.4184156415541],[90.6464799783734,23.4185166871782],[90.6463888900617,23.4191589464525],[90.6463526822167,23.4193871705499],[90.6462687639321,23.4197426135909],[90.6461151642673,23.4201102001648],[90.6459497656363,23.4203158123314],[90.6457068038617,23.4205482783659],[90.645372983525,23.4205891757672],[90.6452244157512,23.4204813977921],[90.6451451367059,23.4204066413893],[90.6446934502214,23.4196057298842],[90.6445136598721,23.4193665421305],[90.644315253565,23.4191991275739],[90.6438399874874,23.4189594638447],[90.6436335727764,23.4189066831206],[90.643201779675,23.4189276560126],[90.6430935405148,23.41893600522],[90.6420659440508,23.4193455724462],[90.6418113512826,23.4195775158057],[90.640910623785,23.4200379274296],[90.6407639036188,23.4200588528175],[90.6399080655871,23.420060103014],[90.6397898988947,23.4200396990424],[90.6394134926848,23.4197482436246],[90.6393920667032,23.4196179224063],[90.6393415281575,23.419412636412],[90.6389870893001,23.4183448462681],[90.638955046584,23.4180418188574],[90.638811615621,23.4174733481602],[90.6387812152818,23.417384839535],[90.6388943706888,23.4168717735665],[90.6389116923417,23.416657177134],[90.6390048027949,23.415409725071],[90.6386220567992,23.4146864192341],[90.6382373836542,23.4145807283297],[90.6378746813854,23.4145918068067],[90.6375814682752,23.4146788139485],[90.6374543337714,23.4147007852983],[90.6371713787636,23.4147583936753],[90.6364732328557,23.4147245442167],[90.6363459604107,23.4147177236204],[90.635981758837,23.4146712205954],[90.6355676551231,23.4145509648016],[90.6352128967479,23.4144321602456],[90.6323183257828,23.4171466026234],[90.6322851690649,23.4173677142985],[90.6314562182752,23.4228955026424],[90.6308835104142,23.4247603401768],[90.6295239721492,23.4266283491235],[90.6283938701544,23.4263803549219],[90.626236305763,23.4258839302044],[90.6252759254847,23.4253511186952],[90.6229822920626,23.4250130342471],[90.6218177107703,23.4247019930293],[90.6216788093175,23.4242605908267],[90.6211616967403,23.4234103060779],[90.6209909486356,23.4234741215151],[90.6204123475843,23.4241077855842],[90.6190448785686,23.4243026210107],[90.6195894254919,23.4237006652292],[90.6201540468416,23.4200680765088],[90.6201518393733,23.4195945615151],[90.6198405879604,23.4188697270393],[90.6193938338516,23.4184295434831],[90.6182407045531,23.4188280269545],[90.6178630808003,23.4191857472995],[90.6170919590817,23.4203048958457],[90.6170343014734,23.4204039185341],[90.6167833987393,23.42078202377],[90.6165423003729,23.421031938789],[90.6163011857138,23.4214105691715],[90.616195520345,23.4215792196809],[90.6157708303788,23.4220805145047],[90.6151048832712,23.4229316456659],[90.6148440517409,23.4232815598249],[90.6145300682831,23.4241770305862],[90.6142002114159,23.4254779044523],[90.6141146643568,23.4257650283158],[90.6140760375477,23.4258792177283],[90.6138944682805,23.4263050318353],[90.6134277960716,23.4276572504708],[90.6133321815374,23.4278845719583],[90.6133058387873,23.428274774021],[90.6133509943329,23.4289125292251],[90.6024392531077,23.4561010017037],[90.6055110047081,23.471104749333],[90.6250379559987,23.4737341027566],[90.6439448965196,23.4487029202712]]]]}
				},{
					"type": "Feature",
					"properties": {"gid": "4205","UNINAME": "Gajra","Union_Code_st": "23","un_uid": "20137923","divid": "20","Dis_Code": "13","Upa_Code": "79","Union_Code": "23","ruo": ""},
					"geometry": 
						{"type":"MultiPolygon","coordinates":[[[[90.6257947835646,23.4097496194427],[90.619206413987,23.4183205206403],[90.6193938338516,23.4184295434831],[90.6198405879604,23.4188697270393],[90.6201518393733,23.4195945615151],[90.6201540468416,23.4200680765088],[90.6195894254919,23.4237006652292],[90.6190448785686,23.4243026210107],[90.6204123475843,23.4241077855842],[90.6209909486356,23.4234741215151],[90.6211616967403,23.4234103060779],[90.6216788093175,23.4242605908267],[90.6218177107703,23.4247019930293],[90.6229822920626,23.4250130342471],[90.6252759254847,23.4253511186952],[90.626236305763,23.4258839302044],[90.6283938701544,23.4263803549219],[90.6295239721492,23.4266283491235],[90.6308835104142,23.4247603401768],[90.6314562182752,23.4228955026424],[90.6322851690649,23.4173677142985],[90.6323183257828,23.4171466026234],[90.6352128967479,23.4144321602456],[90.6355676551231,23.4145509648016],[90.635981758837,23.4146712205954],[90.6363459604107,23.4147177236204],[90.6364732328557,23.4147245442167],[90.6371713787636,23.4147583936753],[90.6374543337714,23.4147007852983],[90.6375814682752,23.4146788139485],[90.6378746813854,23.4145918068067],[90.6382373836542,23.4145807283297],[90.6386220567992,23.4146864192341],[90.6390048027949,23.415409725071],[90.6389116923417,23.416657177134],[90.6388943706888,23.4168717735665],[90.6387812152818,23.417384839535],[90.638811615621,23.4174733481602],[90.638955046584,23.4180418188574],[90.6389870893001,23.4183448462681],[90.6393415281575,23.419412636412],[90.6393920667032,23.4196179224063],[90.6394134926848,23.4197482436246],[90.6397898988947,23.4200396990424],[90.6399080655871,23.420060103014],[90.6407639036188,23.4200588528175],[90.640910623785,23.4200379274296],[90.6418113512826,23.4195775158057],[90.6420659440508,23.4193455724462],[90.6430935405148,23.41893600522],[90.643201779675,23.4189276560126],[90.6436335727764,23.4189066831206],[90.6438399874874,23.4189594638447],[90.644315253565,23.4191991275739],[90.6445136598721,23.4193665421305],[90.6446934502214,23.4196057298842],[90.6451451367059,23.4204066413893],[90.6452244157512,23.4204813977921],[90.645372983525,23.4205891757672],[90.6457068038617,23.4205482783659],[90.6459497656363,23.4203158123314],[90.6461151642673,23.4201102001648],[90.6462687639321,23.4197426135909],[90.6463526822167,23.4193871705499],[90.6463888900617,23.4191589464525],[90.6464799783734,23.4185166871782],[90.6464782638519,23.4184156415541],[90.6464466210468,23.4181984244689],[90.6464703359626,23.4176654002192],[90.6463483668116,23.4166102142953],[90.6462628732314,23.4152556707162],[90.6462265353845,23.4139455222296],[90.6461933966699,23.4136718570615],[90.6461603924299,23.4134258538134],[90.6460545278777,23.4127883605583],[90.6458091600512,23.4121441048019],[90.6457770508422,23.4119562454142],[90.6460933071643,23.4113260394784],[90.646226859325,23.4109890208211],[90.6462633505813,23.4108195076288],[90.6462796971919,23.4105326532384],[90.6454685446026,23.4102751881998],[90.6452162095651,23.4098325011085],[90.6448126385865,23.4091070380686],[90.6443873268334,23.4083122249246],[90.6442545784995,23.4079311424005],[90.6441764751296,23.4073392605785],[90.6441789425137,23.406837937714],[90.6444806967945,23.4066244260085],[90.6428054867153,23.4045154240114],[90.6433117984036,23.4035959606],[90.6441386846811,23.4024369381261],[90.6442240519706,23.4022553684068],[90.644936058926,23.4006180838928],[90.6450394289645,23.4003653071858],[90.6451523142254,23.4000566015029],[90.6452376130216,23.3998614825082],[90.6457990067502,23.3987035471034],[90.645864796933,23.3985220573656],[90.6458758955489,23.398035941],[90.6450123936353,23.3976883613774],[90.6447942457026,23.3976057091494],[90.6444183172834,23.397528223465],[90.6374664439242,23.3943642389177],[90.6370803320819,23.3942009663326],[90.6362469915708,23.3937555484313],[90.6359088020909,23.3935085254968],[90.6350127946339,23.3928742337949],[90.6346347738769,23.3926104334774],[90.6331469827305,23.3917730380411],[90.6326845274536,23.3921452504812],[90.6326200203958,23.3923425371017],[90.6323905997332,23.3931027758861],[90.6321190396511,23.3937480178838],[90.6319385610351,23.3939960174158],[90.6318825504986,23.3941797203406],[90.6310282817668,23.3960264042318],[90.6308687361635,23.3964335192006],[90.6305863554301,23.3969924270929],[90.6304748061471,23.3973316028673],[90.6301919465426,23.3979193036724],[90.6300311088486,23.3981835935984],[90.6296621847162,23.3989393095838],[90.6292700017218,23.3999514208435],[90.6291761934805,23.4001629375372],[90.6287403023717,23.4009877951276],[90.6284639601694,23.4014044100865],[90.6283595436581,23.4015719345991],[90.6280906073782,23.401873352383],[90.6280426830258,23.4019576618548],[90.6279227651252,23.4023403392113],[90.6277673525796,23.4029788969569],[90.627601199612,23.4035452361712],[90.6275251847264,23.4042884797293],[90.6275269482712,23.404403074831],[90.6270735715502,23.405416555237],[90.6263111445701,23.406140533717],[90.625974559729,23.4066279535904],[90.6258333504459,23.4070378126298],[90.6257778731343,23.4073378069673],[90.625219925819,23.4081021728948],[90.6251630236626,23.408229422651],[90.6251695991406,23.4087177257392],[90.6253205865356,23.4090863324718],[90.6256499469321,23.4095326963522],[90.6257947835646,23.4097496194427]]]]}
				}]}