{
	"type": "FeatureCollection",
	"features": [{
					"type": "Feature",
					"properties": {"OBJECTID": "2757","UNINAME": "Baraid","Union_Code_st": "28","un_uid": "30567028","Div_Code": "30","Dis_Code": "56","Upa_Code": "70","Union_Code": "28","ruo": ""},
					"geometry": 
						{"type":"MultiPolygon","coordinates":[[[[89.952305103727,24.0225960288726],[89.9517782680294,24.0097473596055],[89.972706107309,23.9903673741646],[89.9656628957137,23.9804563116052],[89.9717742898759,23.9551657114525],[89.9463831434654,23.9617723611545],[89.9378099311676,23.9775961398595],[89.9208424154187,23.9852534266973],[89.9152430692978,23.9957833034394],[89.9336255358098,24.0060192468907],[89.9416076004799,24.0174190558699],[89.952305103727,24.0225960288726]]]]}
				},{
					"type": "Feature",
					"properties": {"OBJECTID": "2758","UNINAME": "Daragram","Union_Code_st": "38","un_uid": "30567038","Div_Code": "30","Dis_Code": "56","Upa_Code": "70","Union_Code": "38","ruo": ""},
					"geometry": 
						{"type":"MultiPolygon","coordinates":[[[[90.0069769566856,23.9937624282886],[90.0179146666996,23.9781880274972],[90.0130730811169,23.969969604029],[89.998412642098,23.9651321732998],[89.9895122738487,23.950235118519],[89.9717742898759,23.9551657114525],[89.9656628957137,23.9804563116052],[89.972706107309,23.9903673741646],[89.9955413909843,23.9888511698931],[90.0069769566856,23.9937624282886]]]]}
				},{
					"type": "Feature",
					"properties": {"OBJECTID": "2759","UNINAME": "Dighalia","Union_Code_st": "47","un_uid": "30567047","Div_Code": "30","Dis_Code": "56","Upa_Code": "70","Union_Code": "47","ruo": ""},
					"geometry": 
						{"type":"MultiPolygon","coordinates":[[[[90.0061244785538,24.002085788272],[90.0069769566856,23.9937624282886],[89.9955413909843,23.9888511698931],[89.972706107309,23.9903673741646],[89.9517782680294,24.0097473596055],[89.952305103727,24.0225960288726],[89.9671990638432,24.0149292273979],[89.9721122323032,24.0360336768824],[89.9792463937972,24.0335718088607],[89.9923169890919,24.0015584540889],[90.0061244785538,24.002085788272]]]]}
				},{
					"type": "Feature",
					"properties": {"OBJECTID": "2760","UNINAME": "Dhankora","Union_Code_st": "57","un_uid": "30567057","Div_Code": "30","Dis_Code": "56","Upa_Code": "70","Union_Code": "57","ruo": ""},
					"geometry": 
						{"type":"MultiPolygon","coordinates":[[[[90.0670359335962,23.9373880303687],[90.0666467443733,23.9168546330039],[90.0828547850716,23.9108983151409],[90.0848967905627,23.9018466710543],[90.0723809513975,23.8894277648995],[90.0555256371727,23.8863665460452],[90.0518642897833,23.8970430938559],[90.0241413989414,23.9034584858993],[90.0430280009389,23.9132229760325],[90.0398940978715,23.9343851579396],[90.0670359335962,23.9373880303687]]]]}
				},{
					"type": "Feature",
					"properties": {"OBJECTID": "2761","UNINAME": "Fukurhati","Union_Code_st": "66","un_uid": "30567066","Div_Code": "30","Dis_Code": "56","Upa_Code": "70","Union_Code": "66","ruo": ""},
					"geometry": 
						{"type":"MultiPolygon","coordinates":[[[[90.0398940978715,23.9343851579396],[90.0430280009389,23.9132229760325],[90.0241413989414,23.9034584858993],[90.0082353533301,23.9063703101283],[89.9926410428983,23.9220456291268],[89.995750864353,23.9341464021578],[90.0241038787032,23.942824174651],[90.0322550346092,23.9545653915553],[90.0398940978715,23.9343851579396]]]]}
				},{
					"type": "Feature",
					"properties": {"OBJECTID": "2762","UNINAME": "Hargaz","Union_Code_st": "76","un_uid": "30567076","Div_Code": "30","Dis_Code": "56","Upa_Code": "70","Union_Code": "76","ruo": ""},
					"geometry": 
						{"type":"MultiPolygon","coordinates":[[[[90.0322550346092,23.9545653915553],[90.0241038787032,23.942824174651],[89.995750864353,23.9341464021578],[89.9895122738487,23.950235118519],[89.998412642098,23.9651321732998],[90.0130730811169,23.969969604029],[90.0322550346092,23.9545653915553]]]]}
				},{
					"type": "Feature",
					"properties": {"OBJECTID": "2763","UNINAME": "Saturia","Union_Code_st": "85","un_uid": "30567085","Div_Code": "30","Dis_Code": "56","Upa_Code": "70","Union_Code": "85","ruo": ""},
					"geometry": 
						{"type":"MultiPolygon","coordinates":[[[[90.0383848826816,23.9804841431894],[90.0440445504953,23.9664395126446],[90.0600567393981,23.9577132979086],[90.0739626373923,23.9602509801591],[90.0634694715204,23.9502731691347],[90.0670359335962,23.9373880303687],[90.0398940978715,23.9343851579396],[90.0322550346092,23.9545653915553],[90.0130730811169,23.969969604029],[90.0179146666996,23.9781880274972],[90.0383848826816,23.9804841431894]]]]}
				},{
					"type": "Feature",
					"properties": {"OBJECTID": "2764","UNINAME": "Tilli","Union_Code_st": "95","un_uid": "30567095","Div_Code": "30","Dis_Code": "56","Upa_Code": "70","Union_Code": "95","ruo": ""},
					"geometry": 
						{"type":"MultiPolygon","coordinates":[[[[89.9717742898759,23.9551657114525],[89.9895122738487,23.950235118519],[89.995750864353,23.9341464021578],[89.9926410428983,23.9220456291268],[89.9798283960664,23.9156421633221],[89.9484480592051,23.9148213579031],[89.940976931338,23.9286569503565],[89.9463831434654,23.9617723611545],[89.9717742898759,23.9551657114525]]]]}
				},{
					"type": "Feature",
					"properties": {"OBJECTID": "2756","UNINAME": "Baliati","Union_Code_st": "19","un_uid": "30567019","Div_Code": "30","Dis_Code": "56","Upa_Code": "70","Union_Code": "19","ruo": ""},
					"geometry": 
						{"type":"MultiPolygon","coordinates":[[[[90.0441290662317,24.003537156915],[90.0482914013812,23.9878088619369],[90.0383848826816,23.9804841431894],[90.0179146666996,23.9781880274972],[90.0069769566856,23.9937624282886],[90.0061244785538,24.002085788272],[90.0075955229234,24.0113608207282],[90.0441290662317,24.003537156915]]]]}
				}]}